X,CH1,CH2,Start,Increment,
Sequence,Volt,Volt,-2.945000e+01,5.000000e-02
0,-2.00e-01,-1.52e+01,
1,2.40e-01,-2.16e+01,
2,-1.60e-01,-1.52e+01,
3,2.40e-01,-2.16e+01,
4,-2.40e-01,-2.16e+01,
5,2.40e-01,-1.44e+01,
6,-2.00e-01,-1.44e+01,
7,2.40e-01,-2.16e+01,
8,-2.00e-01,-1.44e+01,
9,2.40e-01,-2.16e+01,
10,-1.60e-01,-2.16e+01,
11,8.00e-01,-1.44e+01,
12,-1.60e-01,-2.16e+01,
13,-9.20e-01,-1.44e+01,
14,-6.00e-01,-2.08e+01,
15,2.00e-01,-1.44e+01,
16,-2.80e-01,-2.08e+01,
17,6.00e-01,-1.44e+01,
18,8.00e-02,-2.08e+01,
19,8.00e-01,-1.36e+01,
20,1.60e-01,-2.08e+01,
21,1.08e+00,-1.36e+01,
22,6.80e-01,-2.08e+01,
23,1.52e+00,-1.36e+01,
24,1.16e+00,-2.08e+01,
25,1.76e+00,-1.36e+01,
26,1.12e+00,-1.36e+01,
27,1.84e+00,-2.00e+01,
28,1.96e+00,-1.36e+01,
29,1.48e+00,-2.00e+01,
30,2.04e+00,-1.36e+01,
31,1.52e+00,-2.00e+01,
32,1.88e+00,-2.00e+01,
33,1.40e+00,-1.28e+01,
34,1.44e+00,-1.28e+01,
35,2.00e+00,-2.00e+01,
36,1.64e+00,-1.28e+01,
37,2.12e+00,-2.00e+01,
38,2.04e+00,-2.00e+01,
39,1.56e+00,-1.28e+01,
40,1.64e+00,-2.00e+01,
41,2.08e+00,-1.28e+01,
42,2.00e+00,-1.92e+01,
43,1.52e+00,-1.28e+01,
44,2.00e+00,-1.92e+01,
45,1.24e+00,-1.28e+01,
46,1.72e+00,-1.92e+01,
47,1.04e+00,-1.20e+01,
48,1.64e+00,-1.92e+01,
49,1.00e+00,-1.20e+01,
50,1.56e+00,-1.20e+01,
51,1.00e+00,-1.92e+01,
52,1.72e+00,-1.20e+01,
53,1.12e+00,-1.92e+01,
54,1.28e+00,-1.20e+01,
55,1.92e+00,-1.84e+01,
56,2.08e+00,-1.20e+01,
57,9.60e-01,-1.84e+01,
58,1.72e+00,-1.20e+01,
59,7.60e-01,-1.84e+01,
60,1.32e+00,-1.84e+01,
61,3.60e-01,-1.12e+01,
62,8.80e-01,-1.12e+01,
63,8.00e-02,-1.84e+01,
64,6.00e-01,-1.84e+01,
65,-1.20e-01,-1.04e+01,
66,7.20e-01,-1.84e+01,
67,-8.00e-02,-1.12e+01,
68,7.20e-01,-1.84e+01,
69,8.00e-02,-1.04e+01,
70,4.00e-01,-1.76e+01,
71,-2.80e-01,-1.12e+01,
72,-8.00e-02,-1.76e+01,
73,-7.20e-01,-1.12e+01,
74,-4.00e-01,-1.76e+01,
75,-8.80e-01,-1.04e+01,
76,-6.00e-01,-1.76e+01,
77,-1.08e+00,-9.60e+00,
78,-7.60e-01,-1.04e+01,
79,-1.16e+00,-1.76e+01,
80,-7.20e-01,-9.60e+00,
81,-1.32e+00,-1.76e+01,
82,-8.80e-01,-9.60e+00,
83,-1.40e+00,-1.76e+01,
84,-1.36e+00,-1.04e+01,
85,-9.60e-01,-1.68e+01,
86,-1.40e+00,-1.68e+01,
87,-1.00e+00,-9.60e+00,
88,-1.40e+00,-1.68e+01,
89,-9.60e-01,-9.60e+00,
90,-1.00e+00,-1.68e+01,
91,-1.44e+00,-8.80e+00,
92,-1.40e+00,-1.68e+01,
93,-9.20e-01,-8.80e+00,
94,-1.40e+00,-1.68e+01,
95,-9.60e-01,-8.80e+00,
96,-1.32e+00,-1.68e+01,
97,-8.40e-01,-8.80e+00,
98,-1.32e+00,-1.60e+01,
99,-8.00e-01,-8.80e+00,
100,-1.20e+00,-1.60e+01,
101,-8.40e-01,-8.80e+00,
102,-1.16e+00,-1.60e+01,
103,-8.40e-01,-8.80e+00,
104,-1.12e+00,-1.60e+01,
105,-7.60e-01,-8.00e+00,
106,-1.12e+00,-8.00e+00,
107,-6.40e-01,-1.60e+01,
108,-1.00e+00,-8.00e+00,
109,-5.60e-01,-1.60e+01,
110,-9.60e-01,-8.00e+00,
111,-5.60e-01,-1.60e+01,
112,-5.60e-01,-8.00e+00,
113,-9.60e-01,-1.52e+01,
114,-9.20e-01,-1.52e+01,
115,-4.40e-01,-8.00e+00,
116,-8.00e-01,-8.00e+00,
117,-4.40e-01,-1.52e+01,
118,-8.40e-01,-7.20e+00,
119,-4.00e-01,-1.52e+01,
120,-3.60e-01,-1.52e+01,
121,-8.40e-01,-7.20e+00,
122,-2.80e-01,-7.20e+00,
123,-7.60e-01,-1.52e+01,
124,-3.60e-01,-7.20e+00,
125,-7.20e-01,-1.52e+01,
126,-6.80e-01,-7.20e+00,
127,-1.20e-01,-1.44e+01,
128,-2.40e-01,-7.20e+00,
129,-6.40e-01,-1.36e+01,
130,-6.00e-01,-7.20e+00,
131,-1.60e-01,-1.44e+01,
132,-6.00e-01,-6.40e+00,
133,-1.60e-01,-1.44e+01,
134,-1.20e-01,-6.40e+00,
135,-5.60e-01,-1.44e+01,
136,-5.60e-01,-6.40e+00,
137,-1.20e-01,-1.44e+01,
138,-4.00e-02,-6.40e+00,
139,-5.20e-01,-1.44e+01,
140,-4.40e-01,-6.40e+00,
141,-8.00e-02,-1.36e+01,
142,0.00e+00,-1.36e+01,
143,-4.40e-01,-6.40e+00,
144,-3.60e-01,-5.60e+00,
145,0.00e+00,-1.36e+01,
146,0.00e+00,-1.28e+01,
147,-3.60e-01,-5.60e+00,
148,8.00e-02,-1.36e+01,
149,-3.60e-01,-5.60e+00,
150,-3.20e-01,-1.28e+01,
151,4.00e-02,-5.60e+00,
152,-3.60e-01,-1.36e+01,
153,1.60e-01,-5.60e+00,
154,-3.60e-01,-1.20e+01,
155,8.00e-02,-5.60e+00,
156,-3.20e-01,-5.60e+00,
157,1.20e-01,-1.20e+01,
158,-3.20e-01,-1.20e+01,
159,1.20e-01,-4.80e+00,
160,1.60e-01,-4.80e+00,
161,-2.80e-01,-1.20e+01,
162,-2.80e-01,-4.80e+00,
163,2.40e-01,-1.20e+01,
164,-3.20e-01,-4.80e+00,
165,1.20e-01,-1.20e+01,
166,-2.40e-01,-1.20e+01,
167,2.00e-01,-4.80e+00,
168,-2.40e-01,-1.12e+01,
169,2.80e-01,-4.80e+00,
170,-2.40e-01,-1.12e+01,
171,2.40e-01,-4.80e+00,
172,-2.40e-01,-1.12e+01,
173,1.60e-01,-4.00e+00,
174,-2.40e-01,-1.12e+01,
175,2.80e-01,-4.00e+00,
176,-2.80e-01,-1.12e+01,
177,2.00e-01,-4.00e+00,
178,-2.00e-01,-1.12e+01,
179,2.00e-01,-4.00e+00,
180,2.40e-01,-1.12e+01,
181,-2.00e-01,-4.00e+00,
182,2.40e-01,-4.00e+00,
183,-2.00e-01,-1.04e+01,
184,-1.60e-01,-1.04e+01,
185,2.40e-01,-4.00e+00,
186,-2.00e-01,-1.04e+01,
187,2.40e-01,-3.20e+00,
188,-2.40e-01,-3.20e+00,
189,2.00e-01,-1.04e+01,
190,2.00e-01,-3.20e+00,
191,-2.00e-01,-1.04e+01,
192,-2.00e-01,-3.20e+00,
193,2.80e-01,-1.04e+01,
194,2.00e-01,-1.04e+01,
195,-2.00e-01,-3.20e+00,
196,-2.00e-01,-9.60e+00,
197,2.40e-01,-3.20e+00,
198,2.40e-01,-9.60e+00,
199,-2.00e-01,-3.20e+00,
200,-1.60e-01,-9.60e+00,
201,2.40e-01,-2.40e+00,
202,3.60e-01,-9.60e+00,
203,-2.00e-01,-2.40e+00,
204,2.40e-01,-9.60e+00,
205,-2.00e-01,-2.40e+00,
206,2.40e-01,-2.40e+00,
207,-1.60e-01,-9.60e+00,
208,-1.60e-01,-2.40e+00,
209,2.40e-01,-9.60e+00,
210,-2.00e-01,-2.40e+00,
211,2.40e-01,-8.80e+00,
212,3.20e-01,-2.40e+00,
213,-2.00e-01,-8.80e+00,
214,-2.00e-01,-8.80e+00,
215,2.80e-01,-1.60e+00,
216,-2.00e-01,-8.80e+00,
217,2.40e-01,-8.00e-01,
218,2.80e-01,-8.80e+00,
219,-2.00e-01,-1.60e+00,
220,-1.60e-01,-8.80e+00,
221,2.80e-01,-8.00e-01,
222,3.20e-01,-8.80e+00,
223,-1.60e-01,-8.00e-01,
224,2.40e-01,-8.80e+00,
225,-2.00e-01,-8.00e-01,
226,2.40e-01,-8.80e+00,
227,-2.00e-01,-1.60e+00,
228,-2.00e-01,-8.00e+00,
229,2.80e-01,-8.00e-01,
230,3.20e-01,-8.00e+00,
231,-1.20e-01,0.00e+00,
232,-1.60e-01,0.00e+00,
233,2.80e-01,-8.00e+00,
234,2.40e-01,-8.00e-01,
235,-1.60e-01,-8.00e+00,
236,2.40e-01,0.00e+00,
237,-2.00e-01,-8.00e+00,
238,2.40e-01,0.00e+00,
239,-1.60e-01,-8.00e+00,
240,2.80e-01,-8.00e+00,
241,-4.40e-01,0.00e+00,
242,2.40e-01,-8.00e+00,
243,-2.00e-01,0.00e+00,
244,2.40e-01,-7.20e+00,
245,-1.60e-01,8.00e-01,
246,-1.60e-01,-7.20e+00,
247,2.40e-01,8.00e-01,
248,-1.20e-01,-7.20e+00,
249,2.40e-01,8.00e-01,
250,2.40e-01,8.00e-01,
251,-1.20e-01,-7.20e+00,
252,-1.60e-01,-7.20e+00,
253,2.80e-01,8.00e-01,
254,2.80e-01,-7.20e+00,
255,-2.00e-01,8.00e-01,
256,2.80e-01,-7.20e+00,
257,-1.60e-01,1.60e+00,
258,-1.20e-01,1.60e+00,
259,2.80e-01,-7.20e+00,
260,2.40e-01,1.60e+00,
261,-2.00e-01,-6.40e+00,
262,-1.60e-01,1.60e+00,
263,2.80e-01,-6.40e+00,
264,-1.60e-01,1.60e+00,
265,2.80e-01,-6.40e+00,
266,2.40e-01,1.60e+00,
267,-2.00e-01,-6.40e+00,
268,2.40e-01,1.60e+00,
269,-2.00e-01,-6.40e+00,
270,-2.00e-01,-6.40e+00,
271,2.00e-01,2.40e+00,
272,2.00e-01,-6.40e+00,
273,-2.40e-01,2.40e+00,
274,2.00e-01,2.40e+00,
275,-2.00e-01,-5.60e+00,
276,-2.40e-01,-5.60e+00,
277,2.40e-01,2.40e+00,
278,-2.00e-01,-5.60e+00,
279,2.40e-01,2.40e+00,
280,-1.60e-01,-5.60e+00,
281,2.00e-01,2.40e+00,
282,2.40e-01,-5.60e+00,
283,-2.40e-01,2.40e+00,
284,2.00e-01,2.40e+00,
285,-2.00e-01,-5.60e+00,
286,-2.00e-01,3.20e+00,
287,2.00e-01,-4.80e+00,
288,-2.00e-01,3.20e+00,
289,2.80e-01,-4.80e+00,
290,-2.40e-01,3.20e+00,
291,1.60e-01,-4.80e+00,
292,-2.00e-01,3.20e+00,
293,2.00e-01,-4.80e+00,
294,-2.40e-01,3.20e+00,
295,2.00e-01,-4.80e+00,
296,2.40e-01,-4.00e+00,
297,-2.00e-01,3.20e+00,
298,-2.00e-01,3.20e+00,
299,2.40e-01,-4.80e+00,
300,-2.00e-01,4.00e+00,
301,2.00e-01,-4.00e+00,
302,-2.00e-01,4.00e+00,
303,2.00e-01,-4.00e+00,
304,2.40e-01,4.00e+00,
305,-1.60e-01,-4.00e+00,
306,-2.00e-01,4.00e+00,
307,2.40e-01,-4.00e+00,
308,2.00e-01,4.00e+00,
309,-1.60e-01,-4.00e+00,
310,2.40e-01,4.00e+00,
311,-2.00e-01,-4.00e+00,
312,2.40e-01,-4.00e+00,
313,-1.60e-01,4.00e+00,
314,2.40e-01,-2.40e+00,
315,-1.60e-01,4.80e+00,
316,2.40e-01,4.80e+00,
317,-1.60e-01,-3.20e+00,
318,2.40e-01,4.80e+00,
319,-1.60e-01,-2.40e+00,
320,2.40e-01,-2.40e+00,
321,-4.00e-01,4.80e+00,
322,2.80e-01,-2.40e+00,
323,-1.60e-01,4.80e+00,
324,2.00e-01,-2.40e+00,
325,-2.00e-01,4.80e+00,
326,-2.40e-01,4.80e+00,
327,2.40e-01,-3.20e+00,
328,2.00e-01,-1.60e+00,
329,-2.00e-01,5.60e+00,
330,-2.00e-01,5.60e+00,
331,2.40e-01,-1.60e+00,
332,-2.00e-01,-1.60e+00,
333,2.80e-01,5.60e+00,
334,-2.00e-01,5.60e+00,
335,2.00e-01,-1.60e+00,
336,2.00e-01,-1.60e+00,
337,-2.40e-01,5.60e+00,
338,2.00e-01,5.60e+00,
339,-2.40e-01,-1.60e+00,
340,2.00e-01,5.60e+00,
341,-2.00e-01,-1.60e+00,
342,-2.00e-01,-8.00e-01,
343,2.00e-01,6.40e+00,
344,-2.00e-01,-8.00e-01,
345,2.00e-01,6.40e+00,
346,-2.00e-01,6.40e+00,
347,1.60e-01,-8.00e-01,
348,-2.00e-01,-8.00e-01,
349,2.40e-01,6.40e+00,
350,2.40e-01,-8.00e-01,
351,-2.40e-01,6.40e+00,
352,-1.60e-01,-8.00e-01,
353,3.20e-01,6.40e+00,
354,2.00e-01,0.00e+00,
355,-2.00e-01,6.40e+00,
356,2.00e-01,0.00e+00,
357,-2.00e-01,6.40e+00,
358,2.00e-01,0.00e+00,
359,-2.00e-01,7.20e+00,
360,2.40e-01,0.00e+00,
361,-5.20e-01,7.20e+00,
362,2.00e-01,7.20e+00,
363,-2.00e-01,0.00e+00,
364,-2.00e-01,7.20e+00,
365,2.00e-01,0.00e+00,
366,2.40e-01,7.20e+00,
367,-2.00e-01,8.00e-01,
368,2.00e-01,7.20e+00,
369,-1.60e-01,8.00e-01,
370,2.40e-01,8.00e-01,
371,-1.60e-01,8.00e+00,
372,-2.00e-01,8.00e-01,
373,2.40e-01,8.00e+00,
374,-2.00e-01,8.00e-01,
375,2.40e-01,8.80e+00,
376,-1.60e-01,8.00e-01,
377,2.80e-01,8.80e+00,
378,-1.60e-01,8.00e-01,
379,2.80e-01,8.00e+00,
380,-1.60e-01,1.60e+00,
381,2.80e-01,8.80e+00,
382,-1.20e-01,1.60e+00,
383,3.20e-01,8.80e+00,
384,2.80e-01,1.60e+00,
385,-1.60e-01,8.80e+00,
386,2.40e-01,1.60e+00,
387,-2.00e-01,9.60e+00,
388,2.80e-01,1.60e+00,
389,-2.00e-01,9.60e+00,
390,2.80e-01,9.60e+00,
391,-2.00e-01,1.60e+00,
392,2.40e-01,8.80e+00,
393,-2.00e-01,1.60e+00,
394,2.00e-01,2.40e+00,
395,-2.00e-01,9.60e+00,
396,2.00e-01,9.60e+00,
397,-2.00e-01,2.40e+00,
398,2.40e-01,2.40e+00,
399,-2.00e-01,9.60e+00,
400,-2.00e-01,2.40e+00,
401,2.40e-01,1.04e+01,
402,-1.60e-01,2.40e+00,
403,2.40e-01,1.04e+01,
404,2.40e-01,2.40e+00,
405,-2.00e-01,1.04e+01,
406,-1.60e-01,2.40e+00,
407,2.40e-01,1.04e+01,
408,-2.00e-01,1.04e+01,
409,3.60e-01,3.20e+00,
410,-2.00e-01,3.20e+00,
411,2.00e-01,1.04e+01,
412,-2.00e-01,1.04e+01,
413,2.40e-01,3.20e+00,
414,-1.60e-01,3.20e+00,
415,2.80e-01,1.12e+01,
416,-1.60e-01,1.12e+01,
417,2.80e-01,3.20e+00,
418,-1.60e-01,1.12e+01,
419,2.80e-01,3.20e+00,
420,2.40e-01,3.20e+00,
421,-1.60e-01,1.12e+01,
422,3.20e-01,1.12e+01,
423,-8.00e-02,4.00e+00,
424,-1.60e-01,4.00e+00,
425,2.80e-01,1.12e+01,
426,-3.60e-01,4.00e+00,
427,2.80e-01,1.12e+01,
428,2.80e-01,4.00e+00,
429,-1.60e-01,1.20e+01,
430,-8.00e-02,4.00e+00,
431,2.40e-01,1.20e+01,
432,-1.60e-01,4.00e+00,
433,3.20e-01,1.20e+01,
434,2.80e-01,4.00e+00,
435,-1.60e-01,1.20e+01,
436,2.80e-01,4.80e+00,
437,-1.60e-01,1.20e+01,
438,-1.20e-01,1.20e+01,
439,2.40e-01,4.80e+00,
440,-1.60e-01,1.20e+01,
441,3.20e-01,4.80e+00,
442,-1.60e-01,1.28e+01,
443,2.80e-01,4.80e+00,
444,3.20e-01,1.28e+01,
445,-2.00e-01,4.80e+00,
446,-1.60e-01,1.28e+01,
447,2.80e-01,4.80e+00,
448,-1.60e-01,1.28e+01,
449,2.40e-01,5.60e+00,
450,2.80e-01,5.60e+00,
451,-1.60e-01,1.28e+01,
452,3.60e-01,1.28e+01,
453,-1.60e-01,5.60e+00,
454,2.40e-01,5.60e+00,
455,-1.60e-01,1.28e+01,
456,-1.60e-01,6.40e+00,
457,2.40e-01,1.36e+01,
458,-2.80e-01,5.60e+00,
459,2.80e-01,1.36e+01,
460,2.40e-01,6.40e+00,
461,-2.00e-01,1.36e+01,
462,-1.20e-01,1.36e+01,
463,2.40e-01,5.60e+00,
464,-1.60e-01,1.36e+01,
465,2.80e-01,6.40e+00,
466,-1.20e-01,1.36e+01,
467,2.80e-01,7.20e+00,
468,2.80e-01,1.36e+01,
469,-1.60e-01,6.40e+00,
470,-1.20e-01,7.20e+00,
471,2.40e-01,1.44e+01,
472,-1.20e-01,1.44e+01,
473,2.40e-01,7.20e+00,
474,-1.60e-01,1.44e+01,
475,2.80e-01,6.40e+00,
476,-1.20e-01,7.20e+00,
477,3.20e-01,1.44e+01,
478,-1.60e-01,8.00e+00,
479,2.80e-01,1.44e+01,
480,-1.60e-01,8.00e+00,
481,2.80e-01,1.44e+01,
482,2.80e-01,8.00e+00,
483,-1.60e-01,1.44e+01,
484,-1.20e-01,8.00e+00,
485,2.80e-01,1.52e+01,
486,2.40e-01,8.00e+00,
487,-2.00e-01,1.52e+01,
488,2.40e-01,8.00e+00,
489,-2.00e-01,1.52e+01,
490,2.40e-01,1.52e+01,
491,-2.00e-01,8.00e+00,
492,-2.00e-01,1.52e+01,
493,2.40e-01,8.80e+00,
494,-1.60e-01,1.52e+01,
495,2.40e-01,8.80e+00,
496,2.40e-01,1.52e+01,
497,-1.60e-01,8.80e+00,
498,-1.20e-01,1.60e+01,
499,2.80e-01,8.80e+00,
500,-8.00e-02,8.80e+00,
501,2.40e-01,1.60e+01,
502,2.80e-01,1.60e+01,
503,-2.00e-01,8.80e+00,
504,2.00e-01,8.80e+00,
505,-1.60e-01,1.60e+01,
506,2.80e-01,8.80e+00,
507,-1.60e-01,1.60e+01,
508,-2.00e-01,9.60e+00,
509,2.40e-01,1.60e+01,
510,2.40e-01,9.60e+00,
511,-2.00e-01,1.60e+01,
512,2.40e-01,9.60e+00,
513,-2.00e-01,1.68e+01,
514,2.40e-01,1.68e+01,
515,-1.20e-01,9.60e+00,
516,-2.00e-01,1.68e+01,
517,2.80e-01,9.60e+00,
518,2.80e-01,1.68e+01,
519,-2.00e-01,9.60e+00,
520,-1.60e-01,1.68e+01,
521,3.20e-01,9.60e+00,
522,-1.20e-01,1.68e+01,
523,2.40e-01,1.04e+01,
524,3.20e-01,1.68e+01,
525,-1.60e-01,1.04e+01,
526,2.80e-01,1.04e+01,
527,-2.00e-01,1.76e+01,
528,2.80e-01,1.04e+01,
529,-1.60e-01,1.76e+01,
530,-1.60e-01,1.04e+01,
531,2.40e-01,1.76e+01,
532,2.80e-01,1.04e+01,
533,-1.20e-01,1.76e+01,
534,-1.20e-01,1.76e+01,
535,2.80e-01,1.04e+01,
536,2.80e-01,1.12e+01,
537,-1.20e-01,1.76e+01,
538,-2.00e-01,1.12e+01,
539,2.80e-01,1.84e+01,
540,2.80e-01,1.12e+01,
541,-3.60e-01,1.84e+01,
542,-2.00e-01,1.92e+01,
543,2.40e-01,1.12e+01,
544,2.40e-01,1.84e+01,
545,-1.60e-01,1.12e+01,
546,2.40e-01,1.92e+01,
547,-2.00e-01,1.12e+01,
548,-1.60e-01,1.12e+01,
549,2.40e-01,1.92e+01,
550,2.40e-01,1.20e+01,
551,-1.60e-01,1.92e+01,
552,2.40e-01,1.92e+01,
553,-2.00e-01,1.20e+01,
554,2.80e-01,1.20e+01,
555,-2.00e-01,1.92e+01,
556,-1.60e-01,1.20e+01,
557,2.40e-01,2.00e+01,
558,2.40e-01,2.00e+01,
559,-2.40e-01,1.20e+01,
560,-1.60e-01,1.20e+01,
561,3.20e-01,2.00e+01,
562,2.40e-01,1.20e+01,
563,-2.00e-01,2.00e+01,
564,-2.00e-01,1.28e+01,
565,2.40e-01,2.00e+01,
566,2.80e-01,2.00e+01,
567,-1.60e-01,1.28e+01,
568,2.80e-01,2.00e+01,
569,-2.00e-01,1.28e+01,
570,2.00e-01,2.08e+01,
571,-2.40e-01,1.28e+01,
572,2.40e-01,1.28e+01,
573,-2.00e-01,2.08e+01,
574,2.00e-01,1.28e+01,
575,-2.40e-01,2.08e+01,
576,2.40e-01,2.08e+01,
577,-2.00e-01,1.28e+01,
578,2.00e-01,2.08e+01,
579,-2.40e-01,1.36e+01,
580,-2.00e-01,1.36e+01,
581,2.40e-01,2.08e+01,
582,2.40e-01,1.36e+01,
583,-1.60e-01,2.08e+01,
584,3.20e-01,1.36e+01,
585,-1.60e-01,2.16e+01,
586,-2.00e-01,1.36e+01,
587,2.00e-01,2.16e+01,
588,2.40e-01,2.16e+01,
589,-2.00e-01,1.36e+01,
590,2.00e-01,2.16e+01,
591,-1.60e-01,1.36e+01,
592,-1.60e-01,2.16e+01,
593,3.60e-01,1.44e+01,
594,2.80e-01,2.16e+01,
595,-1.60e-01,1.44e+01,
596,2.40e-01,2.16e+01,
597,-2.40e-01,1.44e+01,
598,2.40e-01,2.24e+01,
599,-1.60e-01,1.44e+01,
600,-2.00e-01,2.24e+01,
601,2.40e-01,1.44e+01,
602,-1.60e-01,2.24e+01,
603,2.80e-01,1.44e+01,
604,2.40e-01,2.24e+01,
605,-2.00e-01,1.44e+01,
606,2.40e-01,1.60e+01,
607,-2.00e-01,2.24e+01,
608,-1.60e-01,2.24e+01,
609,2.40e-01,1.52e+01,
610,-1.60e-01,2.24e+01,
611,2.40e-01,1.52e+01,
612,-2.00e-01,2.32e+01,
613,2.40e-01,1.52e+01,
614,2.80e-01,2.32e+01,
615,-1.60e-01,1.52e+01,
616,-1.20e-01,2.32e+01,
617,2.80e-01,1.52e+01,
618,2.80e-01,1.60e+01,
619,-1.20e-01,2.32e+01,
620,2.80e-01,2.32e+01,
621,-1.60e-01,1.68e+01,
622,-1.20e-01,2.32e+01,
623,2.80e-01,1.60e+01,
624,-1.20e-01,2.32e+01,
625,2.80e-01,1.60e+01,
626,2.40e-01,1.68e+01,
627,-1.60e-01,2.40e+01,
628,2.80e-01,2.40e+01,
629,-1.60e-01,1.68e+01,
630,2.80e-01,2.40e+01,
631,-1.60e-01,1.68e+01,
632,-1.60e-01,1.60e+01,
633,3.60e-01,2.40e+01,
634,2.40e-01,1.76e+01,
635,-1.60e-01,2.40e+01,
636,4.00e-01,1.76e+01,
637,-1.20e-01,2.40e+01,
638,2.80e-01,1.76e+01,
639,-1.60e-01,2.40e+01,
640,-4.40e-01,1.76e+01,
641,2.40e-01,2.48e+01,
642,-1.60e-01,1.76e+01,
643,2.40e-01,2.48e+01,
644,-1.60e-01,2.48e+01,
645,2.40e-01,1.76e+01,
646,-3.60e-01,2.48e+01,
647,2.80e-01,1.76e+01,
648,-2.00e-01,2.48e+01,
649,2.00e-01,1.76e+01,
650,2.80e-01,2.48e+01,
651,-1.60e-01,1.84e+01,
652,-1.60e-01,2.48e+01,
653,2.80e-01,1.84e+01,
654,2.00e-01,1.84e+01,
655,-2.00e-01,2.56e+01,
656,-1.60e-01,2.56e+01,
657,2.80e-01,-2.48e+01,
658,2.40e-01,-2.40e+01,
659,-1.60e-01,-1.68e+01,
660,-1.20e-01,-2.40e+01,
661,9.20e-01,-1.68e+01,
662,1.08e+00,-2.40e+01,
663,2.40e-01,-1.60e+01,
664,6.40e-01,-1.60e+01,
665,1.60e-01,-2.40e+01,
666,5.20e-01,-1.60e+01,
667,1.20e-01,-2.40e+01,
668,4.80e-01,-2.40e+01,
669,4.00e-02,-1.60e+01,
670,4.00e-01,-2.32e+01,
671,-8.00e-02,-1.60e+01,
672,3.60e-01,-1.60e+01,
673,-1.20e-01,-2.24e+01,
674,3.20e-01,-1.60e+01,
675,-1.60e-01,-2.32e+01,
676,2.80e-01,-2.24e+01,
677,-1.60e-01,-1.52e+01,
678,-2.00e-01,-1.52e+01,
679,2.80e-01,-2.24e+01,
680,2.00e-01,-1.52e+01,
681,-2.80e-01,-2.32e+01,
682,2.00e-01,-2.24e+01,
683,-4.00e-01,-1.52e+01,
684,-2.80e-01,-2.32e+01,
685,2.80e-01,-1.52e+01,
686,1.60e-01,-2.16e+01,
687,-3.20e-01,-1.52e+01,
688,1.60e-01,-2.16e+01,
689,-2.40e-01,-1.52e+01,
690,-2.40e-01,-2.16e+01,
691,1.60e-01,-1.44e+01,
692,2.00e-01,-2.16e+01,
693,-3.20e-01,-1.44e+01,
694,-2.80e-01,-1.44e+01,
695,6.40e-01,-2.16e+01,
696,1.20e-01,-2.16e+01,
697,9.20e-01,-1.44e+01,
698,1.08e+00,-1.44e+01,
699,3.60e-01,-2.16e+01,
700,4.80e-01,-1.44e+01,
701,1.16e+00,-2.08e+01,
702,6.00e-01,-2.08e+01,
703,1.36e+00,-1.44e+01,
704,1.28e+00,-2.08e+01,
705,5.20e-01,-1.36e+01,
706,6.00e-01,-1.36e+01,
707,1.12e+00,-2.08e+01,
708,7.60e-01,-1.36e+01,
709,1.36e+00,-2.08e+01,
710,1.12e+00,-2.08e+01,
711,1.72e+00,-1.36e+01,
712,1.24e+00,-2.08e+01,
713,1.72e+00,-1.36e+01,
714,1.76e+00,-2.00e+01,
715,1.24e+00,-1.36e+01,
716,1.68e+00,-2.00e+01,
717,1.16e+00,-1.36e+01,
718,1.12e+00,-2.00e+01,
719,1.92e+00,-1.28e+01,
720,1.84e+00,-2.00e+01,
721,1.28e+00,-1.28e+01,
722,1.76e+00,-1.28e+01,
723,1.20e+00,-2.00e+01,
724,1.76e+00,-1.28e+01,
725,1.28e+00,-2.00e+01,
726,1.76e+00,-1.28e+01,
727,1.24e+00,-2.00e+01,
728,1.68e+00,-1.28e+01,
729,1.24e+00,-1.92e+01,
730,1.04e+00,-1.28e+01,
731,1.56e+00,-1.92e+01,
732,1.44e+00,-1.92e+01,
733,1.04e+00,-1.20e+01,
734,8.40e-01,-1.20e+01,
735,1.48e+00,-1.92e+01,
736,1.04e+00,-1.92e+01,
737,1.64e+00,-1.20e+01,
738,9.20e-01,-1.92e+01,
739,1.52e+00,-1.20e+01,
740,8.40e-01,-1.92e+01,
741,1.48e+00,-1.20e+01,
742,1.40e+00,-1.84e+01,
743,2.80e-01,-1.20e+01,
744,8.00e-01,-1.84e+01,
745,-4.00e-02,-1.20e+01,
746,4.00e-01,-1.84e+01,
747,-4.00e-01,-1.12e+01,
748,-3.60e-01,-1.12e+01,
749,4.00e-01,-1.84e+01,
750,5.60e-01,-1.84e+01,
751,-4.40e-01,-1.04e+01,
752,5.60e-01,-1.84e+01,
753,-2.40e-01,-1.04e+01,
754,1.20e-01,-1.76e+01,
755,-4.40e-01,-1.04e+01,
756,-1.60e-01,-1.12e+01,
757,-7.20e-01,-1.76e+01,
758,-4.40e-01,-1.76e+01,
759,-1.00e+00,-1.04e+01,
760,-6.00e-01,-1.76e+01,
761,-1.12e+00,-1.04e+01,
762,-8.40e-01,-9.60e+00,
763,-1.20e+00,-1.76e+01,
764,-9.20e-01,-1.04e+01,
765,-1.32e+00,-1.76e+01,
766,-9.20e-01,-1.76e+01,
767,-1.32e+00,-9.60e+00,
768,-8.40e-01,-1.04e+01,
769,-1.36e+00,-1.76e+01,
770,-1.36e+00,-1.68e+01,
771,-9.60e-01,-9.60e+00,
772,-1.32e+00,-1.68e+01,
773,-9.20e-01,-9.60e+00,
774,-1.32e+00,-9.60e+00,
775,-8.80e-01,-1.68e+01,
776,-8.40e-01,-1.68e+01,
777,-1.28e+00,-8.80e+00,
778,-1.20e+00,-8.80e+00,
779,-8.00e-01,-1.68e+01,
780,-1.16e+00,-1.68e+01,
781,-7.60e-01,-8.80e+00,
782,-1.16e+00,-1.68e+01,
783,-7.20e-01,-8.80e+00,
784,-6.80e-01,-8.80e+00,
785,-1.08e+00,-1.60e+01,
786,-1.04e+00,-1.60e+01,
787,-6.40e-01,-8.80e+00,
788,-5.20e-01,-1.60e+01,
789,-1.00e+00,-8.00e+00,
790,-1.00e+00,-8.00e+00,
791,-5.60e-01,-1.60e+01,
792,-9.60e-01,-1.60e+01,
793,-5.60e-01,-8.00e+00,
794,-9.20e-01,-1.60e+01,
795,-4.80e-01,-8.00e+00,
796,-8.80e-01,-1.60e+01,
797,-4.00e-01,-8.00e+00,
798,-4.00e-01,-1.52e+01,
799,-8.40e-01,-8.00e+00,
800,-7.60e-01,-1.52e+01,
801,-3.20e-01,-8.00e+00,
802,-7.60e-01,-1.52e+01,
803,-3.60e-01,-7.20e+00,
804,-1.20e-01,-7.20e+00,
805,-6.80e-01,-1.52e+01,
806,-6.80e-01,-7.20e+00,
807,-2.40e-01,-1.52e+01,
808,-6.40e-01,-7.20e+00,
809,-2.40e-01,-1.52e+01,
810,-2.00e-01,-7.20e+00,
811,-9.20e-01,-1.52e+01,
812,-1.60e-01,-7.20e+00,
813,-6.00e-01,-1.44e+01,
814,-7.60e-01,-1.36e+01,
815,-1.20e-01,-7.20e+00,
816,-1.20e-01,-1.44e+01,
817,-5.60e-01,-6.40e+00,
818,-5.20e-01,-1.44e+01,
819,-8.00e-02,-6.40e+00,
820,4.00e-02,-1.44e+01,
821,-5.20e-01,-6.40e+00,
822,-4.80e-01,-6.40e+00,
823,-4.00e-02,-1.44e+01,
824,-8.00e-01,-1.36e+01,
825,-4.00e-02,-6.40e+00,
826,-8.00e-02,-6.40e+00,
827,-5.60e-01,-1.36e+01,
828,-4.00e-02,-6.40e+00,
829,-4.00e-01,-1.36e+01,
830,-4.00e-01,-1.36e+01,
831,0.00e+00,-5.60e+00,
832,-3.60e-01,-1.36e+01,
833,0.00e+00,-5.60e+00,
834,-3.60e-01,-5.60e+00,
835,4.00e-02,-1.28e+01,
836,0.00e+00,-1.28e+01,
837,-3.60e-01,-5.60e+00,
838,-3.60e-01,-1.28e+01,
839,1.20e-01,-5.60e+00,
840,-3.20e-01,-1.20e+01,
841,8.00e-02,-5.60e+00,
842,-3.20e-01,-1.20e+01,
843,1.60e-01,-5.60e+00,
844,-3.20e-01,-1.20e+01,
845,8.00e-02,-4.80e+00,
846,8.00e-02,-1.20e+01,
847,-2.80e-01,-4.80e+00,
848,-2.80e-01,-1.20e+01,
849,1.20e-01,-4.80e+00,
850,1.20e-01,-1.20e+01,
851,-3.20e-01,-4.80e+00,
852,-3.20e-01,-4.80e+00,
853,2.00e-01,-1.20e+01,
854,-3.20e-01,-4.80e+00,
855,8.00e-02,-1.12e+01,
856,-2.80e-01,-4.80e+00,
857,1.20e-01,-1.12e+01,
858,-2.40e-01,-1.12e+01,
859,2.00e-01,-4.00e+00,
860,1.60e-01,-4.00e+00,
861,-2.80e-01,-1.12e+01,
862,-2.80e-01,-4.00e+00,
863,2.00e-01,-1.12e+01,
864,2.00e-01,-1.12e+01,
865,-2.40e-01,-4.00e+00,
866,-2.00e-01,-1.12e+01,
867,2.00e-01,-4.00e+00,
868,1.60e-01,-1.04e+01,
869,-2.40e-01,-4.00e+00,
870,2.00e-01,-1.04e+01,
871,-2.40e-01,-4.00e+00,
872,2.00e-01,-1.04e+01,
873,-2.00e-01,-3.20e+00,
874,2.80e-01,-1.04e+01,
875,-2.00e-01,-3.20e+00,
876,1.60e-01,-3.20e+00,
877,-1.60e-01,-1.04e+01,
878,2.40e-01,-3.20e+00,
879,-2.00e-01,-1.04e+01,
880,3.60e-01,-3.20e+00,
881,-2.00e-01,-1.04e+01,
882,-1.60e-01,-3.20e+00,
883,2.40e-01,-9.60e+00,
884,2.00e-01,-3.20e+00,
885,-2.40e-01,-9.60e+00,
886,2.40e-01,-9.60e+00,
887,-2.00e-01,-2.40e+00,
888,-1.60e-01,-2.40e+00,
889,2.40e-01,-9.60e+00,
890,2.40e-01,-9.60e+00,
891,-1.20e-01,-2.40e+00,
892,-1.60e-01,-9.60e+00,
893,2.40e-01,-2.40e+00,
894,-1.60e-01,-9.60e+00,
895,2.40e-01,-2.40e+00,
896,2.80e-01,-8.80e+00,
897,-1.60e-01,-2.40e+00,
898,2.80e-01,-2.40e+00,
899,-2.00e-01,-8.80e+00,
900,2.40e-01,-8.80e+00,
901,-2.40e-01,-1.60e+00,
902,-2.40e-01,-1.60e+00,
903,1.60e-01,-8.80e+00,
904,2.00e-01,-8.00e-01,
905,-2.00e-01,-8.80e+00,
906,-2.00e-01,-8.80e+00,
907,2.40e-01,-8.00e-01,
908,-2.00e-01,-8.00e-01,
909,2.80e-01,-8.80e+00,
910,-2.00e-01,-8.80e+00,
911,2.00e-01,-8.00e-01,
912,2.00e-01,-1.60e+00,
913,-2.00e-01,-8.80e+00,
914,-2.00e-01,-8.00e+00,
915,2.00e-01,-8.00e-01,
916,-2.80e-01,-8.00e+00,
917,2.00e-01,0.00e+00,
918,2.00e-01,-8.00e+00,
919,-2.00e-01,0.00e+00,
920,-2.40e-01,-8.00e+00,
921,2.40e-01,0.00e+00,
922,-2.00e-01,-8.00e+00,
923,2.80e-01,0.00e+00,
924,2.40e-01,-8.00e+00,
925,-2.40e-01,0.00e+00,
926,2.40e-01,0.00e+00,
927,-2.00e-01,-8.00e+00,
928,-3.60e-01,8.00e-01,
929,2.40e-01,-8.00e+00,
930,-1.60e-01,8.00e-01,
931,2.00e-01,-7.20e+00,
932,-2.00e-01,8.00e-01,
933,2.40e-01,-7.20e+00,
934,2.40e-01,-7.20e+00,
935,-2.40e-01,8.00e-01,
936,-2.00e-01,8.00e-01,
937,2.40e-01,-7.20e+00,
938,-1.60e-01,8.00e-01,
939,2.40e-01,-7.20e+00,
940,-1.60e-01,8.00e-01,
941,2.40e-01,-7.20e+00,
942,-2.00e-01,-7.20e+00,
943,2.00e-01,1.60e+00,
944,-1.60e-01,1.60e+00,
945,4.40e-01,-6.40e+00,
946,-1.60e-01,-6.40e+00,
947,2.40e-01,1.60e+00,
948,2.80e-01,-6.40e+00,
949,-2.00e-01,1.60e+00,
950,2.40e-01,-6.40e+00,
951,-1.60e-01,1.60e+00,
952,2.80e-01,-6.40e+00,
953,-1.60e-01,1.60e+00,
954,-1.60e-01,-6.40e+00,
955,2.40e-01,1.60e+00,
956,2.40e-01,-6.40e+00,
957,-1.60e-01,2.40e+00,
958,-1.60e-01,2.40e+00,
959,2.80e-01,-5.60e+00,
960,2.40e-01,-5.60e+00,
961,-2.00e-01,2.40e+00,
962,-2.00e-01,-5.60e+00,
963,2.40e-01,2.40e+00,
964,2.40e-01,2.40e+00,
965,-2.00e-01,-5.60e+00,
966,-2.00e-01,-5.60e+00,
967,2.40e-01,2.40e+00,
968,2.80e-01,2.40e+00,
969,-2.00e-01,-5.60e+00,
970,-2.00e-01,-5.60e+00,
971,2.40e-01,3.20e+00,
972,2.00e-01,-4.80e+00,
973,-2.00e-01,3.20e+00,
974,2.40e-01,-4.80e+00,
975,-1.60e-01,3.20e+00,
976,2.40e-01,3.20e+00,
977,-1.20e-01,-4.80e+00,
978,-1.60e-01,3.20e+00,
979,2.80e-01,-4.80e+00,
980,-1.20e-01,-4.80e+00,
981,3.60e-01,3.20e+00,
982,2.80e-01,3.20e+00,
983,-2.00e-01,-4.80e+00,
984,-2.00e-01,3.20e+00,
985,2.80e-01,-4.00e+00,
986,2.80e-01,4.00e+00,
987,-1.60e-01,-4.00e+00,
988,2.80e-01,-4.00e+00,
989,-1.20e-01,4.00e+00,
990,3.20e-01,4.00e+00,
991,-1.60e-01,-4.00e+00,
992,-1.60e-01,-3.20e+00,
993,3.20e-01,4.00e+00,
994,2.80e-01,-4.00e+00,
995,-1.60e-01,4.00e+00,
996,2.80e-01,4.00e+00,
997,-1.60e-01,-4.00e+00,
998,-1.60e-01,-3.20e+00,
999,2.80e-01,4.00e+00,
1000,2.00e-01,4.80e+00,
1001,-2.00e-01,-3.20e+00,
1002,-2.00e-01,-2.40e+00,
1003,2.40e-01,4.80e+00,
1004,2.80e-01,-2.40e+00,
1005,-2.00e-01,4.80e+00,
1006,-1.60e-01,4.80e+00,
1007,2.80e-01,-2.40e+00,
1008,-1.60e-01,4.80e+00,
1009,2.00e-01,-3.20e+00,
1010,4.40e-01,4.80e+00,
1011,-1.60e-01,-2.40e+00,
1012,2.80e-01,4.80e+00,
1013,-1.60e-01,-3.20e+00,
1014,-4.00e-01,-1.60e+00,
1015,2.40e-01,5.60e+00,
1016,-1.60e-01,5.60e+00,
1017,2.80e-01,-1.60e+00,
1018,2.80e-01,5.60e+00,
1019,-1.60e-01,-1.60e+00,
1020,2.80e-01,-1.60e+00,
1021,-2.00e-01,5.60e+00,
1022,2.80e-01,-1.60e+00,
1023,-2.40e-01,5.60e+00,
1024,-1.60e-01,-1.60e+00,
1025,2.40e-01,5.60e+00,
1026,2.00e-01,-1.60e+00,
1027,-2.00e-01,5.60e+00,
1028,-1.60e-01,-8.00e-01,
1029,2.80e-01,6.40e+00,
1030,2.80e-01,6.40e+00,
1031,-1.60e-01,-8.00e-01,
1032,-1.60e-01,-8.00e-01,
1033,2.80e-01,6.40e+00,
1034,2.80e-01,6.40e+00,
1035,-1.20e-01,-8.00e-01,
1036,2.80e-01,6.40e+00,
1037,-1.60e-01,-8.00e-01,
1038,-1.60e-01,6.40e+00,
1039,2.80e-01,-8.00e-01,
1040,2.40e-01,6.40e+00,
1041,-1.60e-01,0.00e+00,
1042,2.00e-01,0.00e+00,
1043,-1.60e-01,7.20e+00,
1044,2.40e-01,0.00e+00,
1045,-1.60e-01,7.20e+00,
1046,-2.00e-01,0.00e+00,
1047,2.40e-01,7.20e+00,
1048,2.40e-01,0.00e+00,
1049,-1.60e-01,7.20e+00,
1050,2.40e-01,8.00e-01,
1051,-1.60e-01,7.20e+00,
1052,-2.00e-01,8.00e-01,
1053,2.40e-01,7.20e+00,
1054,-1.60e-01,8.00e-01,
1055,3.20e-01,7.20e+00,
1056,-2.00e-01,8.00e-01,
1057,2.40e-01,8.00e+00,
1058,-2.00e-01,8.00e+00,
1059,2.80e-01,8.00e-01,
1060,-1.60e-01,8.00e+00,
1061,2.40e-01,8.00e-01,
1062,-1.60e-01,8.80e+00,
1063,2.40e-01,8.00e-01,
1064,-2.00e-01,8.00e+00,
1065,2.40e-01,1.60e+00,
1066,2.40e-01,1.60e+00,
1067,-1.60e-01,8.80e+00,
1068,-1.20e-01,8.00e+00,
1069,2.40e-01,1.60e+00,
1070,-2.00e-01,1.60e+00,
1071,2.00e-01,8.80e+00,
1072,-1.60e-01,8.80e+00,
1073,3.60e-01,1.60e+00,
1074,2.40e-01,1.60e+00,
1075,-2.00e-01,9.60e+00,
1076,2.00e-01,1.60e+00,
1077,-2.00e-01,9.60e+00,
1078,-1.60e-01,1.60e+00,
1079,2.40e-01,9.60e+00,
1080,-2.40e-01,2.40e+00,
1081,2.40e-01,9.60e+00,
1082,-1.60e-01,9.60e+00,
1083,2.40e-01,2.40e+00,
1084,2.80e-01,2.40e+00,
1085,-1.60e-01,1.04e+01,
1086,-2.00e-01,2.40e+00,
1087,2.00e-01,1.04e+01,
1088,2.40e-01,2.40e+00,
1089,-2.00e-01,1.04e+01,
1090,2.40e-01,1.04e+01,
1091,-1.60e-01,2.40e+00,
1092,2.40e-01,3.20e+00,
1093,-2.40e-01,1.04e+01,
1094,-2.00e-01,3.20e+00,
1095,2.40e-01,1.04e+01,
1096,-1.20e-01,3.20e+00,
1097,2.80e-01,1.04e+01,
1098,-2.00e-01,1.04e+01,
1099,2.40e-01,3.20e+00,
1100,2.80e-01,3.20e+00,
1101,-1.60e-01,1.12e+01,
1102,-1.60e-01,3.20e+00,
1103,2.80e-01,1.12e+01,
1104,2.40e-01,3.20e+00,
1105,-1.20e-01,1.12e+01,
1106,-1.60e-01,4.00e+00,
1107,2.80e-01,1.12e+01,
1108,-1.60e-01,1.12e+01,
1109,3.20e-01,4.00e+00,
1110,-2.00e-01,4.00e+00,
1111,2.40e-01,1.12e+01,
1112,2.40e-01,1.12e+01,
1113,-2.00e-01,4.00e+00,
1114,2.00e-01,4.00e+00,
1115,-2.00e-01,1.20e+01,
1116,2.40e-01,1.20e+01,
1117,-2.00e-01,4.00e+00,
1118,2.40e-01,1.20e+01,
1119,-2.40e-01,4.00e+00,
1120,-1.60e-01,4.00e+00,
1121,2.80e-01,1.20e+01,
1122,2.00e-01,1.20e+01,
1123,-2.00e-01,4.80e+00,
1124,-2.00e-01,4.80e+00,
1125,2.40e-01,1.20e+01,
1126,2.80e-01,4.80e+00,
1127,-2.00e-01,1.28e+01,
1128,-1.20e-01,1.28e+01,
1129,4.00e-01,4.80e+00,
1130,-2.00e-01,5.60e+00,
1131,2.40e-01,1.28e+01,
1132,-1.60e-01,4.80e+00,
1133,2.80e-01,1.28e+01,
1134,2.80e-01,5.60e+00,
1135,-1.60e-01,1.28e+01,
1136,-1.20e-01,1.28e+01,
1137,2.80e-01,5.60e+00,
1138,-1.20e-01,1.28e+01,
1139,3.60e-01,5.60e+00,
1140,-1.60e-01,1.28e+01,
1141,2.80e-01,5.60e+00,
1142,2.80e-01,1.36e+01,
1143,-1.20e-01,5.60e+00,
1144,2.40e-01,1.36e+01,
1145,-1.60e-01,5.60e+00,
1146,2.40e-01,1.36e+01,
1147,-2.00e-01,5.60e+00,
1148,2.40e-01,1.36e+01,
1149,-2.00e-01,5.60e+00,
1150,-1.60e-01,7.20e+00,
1151,2.40e-01,1.36e+01,
1152,2.00e-01,7.20e+00,
1153,-2.00e-01,1.36e+01,
1154,-2.00e-01,1.36e+01,
1155,3.60e-01,6.40e+00,
1156,-1.20e-01,7.20e+00,
1157,2.00e-01,1.44e+01,
1158,2.40e-01,7.20e+00,
1159,-2.00e-01,1.44e+01,
1160,-2.00e-01,1.44e+01,
1161,2.40e-01,7.20e+00,
1162,-1.60e-01,1.44e+01,
1163,2.40e-01,7.20e+00,
1164,-2.00e-01,1.44e+01,
1165,3.20e-01,8.00e+00,
1166,2.00e-01,1.44e+01,
1167,-2.00e-01,8.00e+00,
1168,-2.00e-01,1.44e+01,
1169,2.80e-01,8.00e+00,
1170,2.00e-01,8.00e+00,
1171,-1.60e-01,1.52e+01,
1172,2.00e-01,1.52e+01,
1173,-2.00e-01,8.00e+00,
1174,2.40e-01,8.00e+00,
1175,-2.00e-01,1.52e+01,
1176,-1.60e-01,8.00e+00,
1177,2.40e-01,1.52e+01,
1178,-1.60e-01,8.00e+00,
1179,2.40e-01,1.52e+01,
1180,2.80e-01,8.80e+00,
1181,-2.00e-01,1.52e+01,
1182,-1.60e-01,8.80e+00,
1183,2.40e-01,1.52e+01,
1184,2.80e-01,8.80e+00,
1185,-1.60e-01,1.60e+01,
1186,-1.60e-01,1.60e+01,
1187,2.40e-01,8.80e+00,
1188,2.40e-01,1.60e+01,
1189,-1.20e-01,8.80e+00,
1190,-1.20e-01,1.60e+01,
1191,2.80e-01,8.80e+00,
1192,3.20e-01,1.60e+01,
1193,-1.60e-01,9.60e+00,
1194,-1.20e-01,1.60e+01,
1195,2.40e-01,9.60e+00,
1196,3.20e-01,1.60e+01,
1197,-1.60e-01,9.60e+00,
1198,2.80e-01,9.60e+00,
1199,-1.60e-01,1.68e+01,
