X,CH1,CH2,Start,Increment,
Sequence,Volt,Volt,-2.945000e+01,5.000000e-02
0,4.00e-02,2.00e+01,
1,4.00e-01,1.28e+01,
2,4.00e-02,2.08e+01,
3,4.00e-01,1.36e+01,
4,4.40e-01,2.08e+01,
5,8.00e-02,1.28e+01,
6,0.00e+00,2.08e+01,
7,4.00e-01,1.28e+01,
8,3.60e-01,2.08e+01,
9,-4.00e-02,1.36e+01,
10,0.00e+00,1.44e+01,
11,3.60e-01,2.08e+01,
12,3.60e-01,1.44e+01,
13,-3.20e-01,2.08e+01,
14,3.20e-01,1.36e+01,
15,-8.00e-02,2.08e+01,
16,0.00e+00,2.16e+01,
17,3.60e-01,1.36e+01,
18,3.20e-01,1.44e+01,
19,-8.00e-02,2.16e+01,
20,3.20e-01,1.44e+01,
21,-8.00e-02,2.16e+01,
22,0.00e+00,1.44e+01,
23,4.00e-01,2.16e+01,
24,-8.00e-02,2.16e+01,
25,3.20e-01,1.52e+01,
26,3.60e-01,2.16e+01,
27,-1.20e-01,1.52e+01,
28,-8.00e-02,2.16e+01,
29,3.20e-01,1.52e+01,
30,2.80e-01,1.52e+01,
31,-8.00e-02,2.24e+01,
32,3.20e-01,2.24e+01,
33,-1.20e-01,1.52e+01,
34,3.20e-01,2.24e+01,
35,-1.20e-01,1.52e+01,
36,3.20e-01,1.52e+01,
37,-1.20e-01,2.24e+01,
38,-1.20e-01,1.60e+01,
39,2.80e-01,2.24e+01,
40,-4.40e-01,1.60e+01,
41,2.80e-01,2.24e+01,
42,2.40e-01,1.60e+01,
43,-1.20e-01,2.24e+01,
44,2.80e-01,1.60e+01,
45,-1.60e-01,2.32e+01,
46,-1.20e-01,1.60e+01,
47,2.80e-01,2.32e+01,
48,2.80e-01,1.60e+01,
49,-1.20e-01,2.32e+01,
50,2.40e-01,2.32e+01,
51,-1.60e-01,1.60e+01,
52,-1.60e-01,2.32e+01,
53,2.80e-01,1.68e+01,
54,-1.60e-01,2.32e+01,
55,2.80e-01,1.68e+01,
56,-2.00e-01,1.68e+01,
57,2.40e-01,2.40e+01,
58,2.80e-01,1.68e+01,
59,-2.00e-01,2.40e+01,
60,2.80e-01,2.40e+01,
61,-1.60e-01,1.68e+01,
62,2.40e-01,1.68e+01,
63,-1.60e-01,2.40e+01,
64,-2.00e-01,1.68e+01,
65,2.80e-01,2.40e+01,
66,2.40e-01,1.76e+01,
67,-2.00e-01,2.40e+01,
68,2.80e-01,1.76e+01,
69,-8.00e-02,2.40e+01,
70,-1.20e-01,1.76e+01,
71,2.80e-01,2.40e+01,
72,-1.60e-01,1.76e+01,
73,2.80e-01,2.48e+01,
74,-1.20e-01,2.48e+01,
75,2.80e-01,1.76e+01,
76,2.80e-01,2.48e+01,
77,-1.60e-01,1.76e+01,
78,-1.20e-01,1.76e+01,
79,2.80e-01,2.56e+01,
80,-1.60e-01,2.48e+01,
81,2.80e-01,-2.40e+01,
82,-2.00e-01,-2.40e+01,
83,2.80e-01,-1.68e+01,
84,-8.00e-02,-1.68e+01,
85,2.40e-01,-2.40e+01,
86,2.40e-01,-1.68e+01,
87,-1.60e-01,-2.48e+01,
88,2.40e-01,-2.40e+01,
89,-2.00e-01,-1.68e+01,
90,2.40e-01,-2.32e+01,
91,-2.00e-01,-1.68e+01,
92,-2.00e-01,-2.32e+01,
93,2.40e-01,-1.68e+01,
94,-1.60e-01,-2.32e+01,
95,2.40e-01,-1.60e+01,
96,-2.00e-01,-2.32e+01,
97,2.00e-01,-1.60e+01,
98,-2.00e-01,-2.32e+01,
99,2.40e-01,-1.60e+01,
100,2.40e-01,-2.32e+01,
101,-2.40e-01,-1.60e+01,
102,-1.60e-01,-1.60e+01,
103,2.80e-01,-2.32e+01,
104,2.40e-01,-1.60e+01,
105,-2.00e-01,-2.24e+01,
106,-2.00e-01,-1.60e+01,
107,2.40e-01,-2.24e+01,
108,-1.60e-01,-2.24e+01,
109,2.40e-01,-1.52e+01,
110,2.40e-01,-2.24e+01,
111,-2.00e-01,-1.52e+01,
112,2.40e-01,-1.52e+01,
113,-2.00e-01,-2.24e+01,
114,-1.20e-01,-1.52e+01,
115,2.40e-01,-2.24e+01,
116,-2.00e-01,-2.24e+01,
117,2.80e-01,-1.52e+01,
118,2.40e-01,-2.16e+01,
119,-1.20e-01,-1.52e+01,
120,-1.20e-01,-2.16e+01,
121,2.80e-01,-1.52e+01,
122,2.40e-01,-2.16e+01,
123,-1.20e-01,-1.52e+01,
124,-2.00e-01,-2.16e+01,
125,2.40e-01,-1.44e+01,
126,-1.60e-01,-1.44e+01,
127,2.80e-01,-2.16e+01,
128,-1.60e-01,-1.44e+01,
129,2.80e-01,-2.16e+01,
130,-1.60e-01,-1.44e+01,
131,2.80e-01,-2.16e+01,
132,-1.60e-01,-1.44e+01,
133,2.40e-01,-2.16e+01,
134,2.80e-01,-1.44e+01,
135,-1.60e-01,-2.08e+01,
136,-1.60e-01,-2.08e+01,
137,2.80e-01,-1.36e+01,
138,-1.20e-01,-1.36e+01,
139,2.80e-01,-2.08e+01,
140,-1.20e-01,-2.08e+01,
141,2.80e-01,-1.36e+01,
142,-1.20e-01,-2.08e+01,
143,2.80e-01,-1.28e+01,
144,2.80e-01,-2.08e+01,
145,-1.20e-01,-1.36e+01,
146,2.40e-01,-2.00e+01,
147,-1.60e-01,-1.28e+01,
148,-1.20e-01,-2.00e+01,
149,2.80e-01,-1.28e+01,
150,-8.00e-02,-2.00e+01,
151,2.80e-01,-1.28e+01,
152,2.80e-01,-1.20e+01,
153,-1.60e-01,-2.00e+01,
154,2.80e-01,-2.00e+01,
155,-4.00e-01,-1.20e+01,
156,-2.00e-01,-2.00e+01,
157,2.40e-01,-1.20e+01,
158,2.80e-01,-2.00e+01,
159,-1.60e-01,-1.20e+01,
160,-1.20e-01,-1.92e+01,
161,2.40e-01,-1.20e+01,
162,2.40e-01,-1.92e+01,
163,-3.20e-01,-1.20e+01,
164,2.40e-01,-1.92e+01,
165,-1.60e-01,-1.20e+01,
166,-2.00e-01,-1.92e+01,
167,2.80e-01,-1.12e+01,
168,-1.60e-01,-1.92e+01,
169,2.80e-01,-1.20e+01,
170,-1.60e-01,-1.92e+01,
171,2.40e-01,-1.20e+01,
172,2.40e-01,-1.92e+01,
173,-2.00e-01,-1.12e+01,
174,-1.60e-01,-1.84e+01,
175,2.40e-01,-1.12e+01,
176,-1.20e-01,-1.84e+01,
177,2.80e-01,-1.12e+01,
178,-1.20e-01,-1.12e+01,
179,2.80e-01,-1.84e+01,
180,-1.60e-01,-1.04e+01,
181,2.80e-01,-1.84e+01,
182,2.80e-01,-1.04e+01,
183,-2.00e-01,-1.84e+01,
184,2.40e-01,-1.04e+01,
185,-1.60e-01,-1.84e+01,
186,-1.20e-01,-1.04e+01,
187,2.40e-01,-1.76e+01,
188,-2.00e-01,-1.04e+01,
189,2.80e-01,-1.76e+01,
190,2.00e-01,-1.76e+01,
191,-2.00e-01,-1.04e+01,
192,-1.60e-01,-1.76e+01,
193,2.80e-01,-1.04e+01,
194,2.40e-01,-9.60e+00,
195,-2.00e-01,-1.76e+01,
196,2.80e-01,-1.76e+01,
197,-1.20e-01,-9.60e+00,
198,2.80e-01,-9.60e+00,
199,-1.60e-01,-1.76e+01,
200,-1.20e-01,-1.76e+01,
201,2.40e-01,-9.60e+00,
202,-1.60e-01,-1.68e+01,
203,2.40e-01,-9.60e+00,
204,2.40e-01,-1.68e+01,
205,-2.00e-01,-9.60e+00,
206,2.40e-01,-9.60e+00,
207,-2.00e-01,-1.68e+01,
208,2.00e-01,-1.68e+01,
209,-2.00e-01,-8.80e+00,
210,-2.00e-01,-8.80e+00,
211,2.40e-01,-1.68e+01,
212,2.40e-01,-1.68e+01,
213,-1.60e-01,-8.80e+00,
214,-1.60e-01,-1.60e+01,
215,2.40e-01,-8.80e+00,
216,2.80e-01,-1.60e+01,
217,-4.40e-01,-8.80e+00,
218,2.80e-01,-1.52e+01,
219,-1.20e-01,-8.80e+00,
220,-2.00e-01,-8.80e+00,
221,2.40e-01,-1.60e+01,
222,-2.00e-01,-1.52e+01,
223,2.40e-01,-8.00e+00,
224,2.40e-01,-1.52e+01,
225,-1.60e-01,-8.00e+00,
226,-1.20e-01,-1.52e+01,
227,2.40e-01,-8.00e+00,
228,-1.60e-01,-1.52e+01,
229,2.40e-01,-8.00e+00,
230,-2.00e-01,-8.00e+00,
231,1.60e-01,-1.52e+01,
232,2.40e-01,-8.00e+00,
233,-4.40e-01,-1.44e+01,
234,2.40e-01,-8.00e+00,
235,-1.60e-01,-1.44e+01,
236,-1.20e-01,-1.44e+01,
237,2.40e-01,-7.20e+00,
238,-2.00e-01,-7.20e+00,
239,2.40e-01,-1.44e+01,
240,2.00e-01,-7.20e+00,
241,-2.00e-01,-1.44e+01,
242,2.80e-01,-1.44e+01,
243,-2.00e-01,-7.20e+00,
244,2.40e-01,-1.36e+01,
245,-1.60e-01,-7.20e+00,
246,2.00e-01,-1.36e+01,
247,-2.00e-01,-7.20e+00,
248,-1.60e-01,-1.36e+01,
249,2.40e-01,-6.40e+00,
250,-1.60e-01,-1.36e+01,
251,2.40e-01,-6.40e+00,
252,-1.60e-01,-1.36e+01,
253,2.40e-01,-6.40e+00,
254,-3.20e-01,-1.36e+01,
255,2.40e-01,-6.40e+00,
256,-1.60e-01,-6.40e+00,
257,2.40e-01,-1.36e+01,
258,2.00e-01,-6.40e+00,
259,-1.60e-01,-1.28e+01,
260,-2.00e-01,-6.40e+00,
261,2.80e-01,-1.28e+01,
262,-1.60e-01,-1.28e+01,
263,2.40e-01,-5.60e+00,
264,-2.00e-01,-5.60e+00,
265,2.80e-01,-1.28e+01,
266,2.00e-01,-5.60e+00,
267,-1.60e-01,-1.28e+01,
268,-1.60e-01,-1.28e+01,
269,2.40e-01,-5.60e+00,
270,2.00e-01,-1.28e+01,
271,-2.00e-01,-5.60e+00,
272,2.40e-01,-1.20e+01,
273,-2.40e-01,-5.60e+00,
274,2.00e-01,-1.20e+01,
275,-2.40e-01,-4.80e+00,
276,2.40e-01,-1.20e+01,
277,-2.40e-01,-5.60e+00,
278,-2.00e-01,-1.20e+01,
279,2.00e-01,-4.80e+00,
280,2.40e-01,-4.80e+00,
281,-2.00e-01,-1.20e+01,
282,2.40e-01,-4.80e+00,
283,-1.60e-01,-1.20e+01,
284,-1.60e-01,-4.80e+00,
285,2.40e-01,-1.20e+01,
286,-2.40e-01,-4.80e+00,
287,2.40e-01,-1.12e+01,
288,2.40e-01,-4.80e+00,
289,-1.60e-01,-1.12e+01,
290,2.40e-01,-1.12e+01,
291,-1.60e-01,-4.00e+00,
292,2.40e-01,-1.12e+01,
293,-2.00e-01,-3.20e+00,
294,2.80e-01,-1.12e+01,
295,-2.40e-01,-4.00e+00,
296,-1.60e-01,-1.12e+01,
297,2.80e-01,-4.00e+00,
298,2.40e-01,-1.12e+01,
299,-1.60e-01,-3.20e+00,
300,2.40e-01,-4.00e+00,
301,-1.20e-01,-1.12e+01,
302,2.40e-01,-1.04e+01,
303,-2.40e-01,-4.00e+00,
304,2.00e-01,-1.04e+01,
305,-1.60e-01,-3.20e+00,
306,-2.00e-01,-1.04e+01,
307,2.00e-01,-3.20e+00,
308,-1.60e-01,-1.04e+01,
309,2.00e-01,-2.40e+00,
310,2.40e-01,-1.04e+01,
311,-1.60e-01,-2.40e+00,
312,-2.00e-01,-2.40e+00,
313,2.40e-01,-1.04e+01,
314,-2.00e-01,-2.40e+00,
315,2.00e-01,-9.60e+00,
316,-1.60e-01,-2.40e+00,
317,3.20e-01,-9.60e+00,
318,-2.00e-01,-1.60e+00,
319,2.40e-01,-9.60e+00,
320,-1.60e-01,-9.60e+00,
321,2.40e-01,-1.60e+00,
322,2.00e-01,-9.60e+00,
323,-4.80e-01,-1.60e+00,
324,2.40e-01,-2.40e+00,
325,-1.60e-01,-9.60e+00,
326,2.00e-01,-9.60e+00,
327,-2.00e-01,-1.60e+00,
328,-1.20e-01,-9.60e+00,
329,2.40e-01,-1.60e+00,
330,-1.60e-01,-8.80e+00,
331,2.00e-01,-1.60e+00,
332,2.80e-01,-8.80e+00,
333,-3.20e-01,-8.00e-01,
334,2.80e-01,-8.80e+00,
335,-1.60e-01,-8.00e-01,
336,2.40e-01,-8.00e-01,
337,-1.60e-01,-8.80e+00,
338,-1.60e-01,-8.80e+00,
339,2.80e-01,-8.00e-01,
340,2.40e-01,-8.00e-01,
341,-1.20e-01,-8.80e+00,
342,-1.60e-01,-8.80e+00,
343,2.40e-01,-8.00e-01,
344,-2.00e-01,-8.80e+00,
345,2.40e-01,-8.00e-01,
346,2.40e-01,-8.80e+00,
347,-2.80e-01,0.00e+00,
348,-1.60e-01,-8.00e+00,
349,2.40e-01,0.00e+00,
350,2.00e-01,0.00e+00,
351,-2.00e-01,-8.00e+00,
352,-2.00e-01,-8.00e+00,
353,2.40e-01,0.00e+00,
354,-1.20e-01,-8.00e+00,
355,2.00e-01,0.00e+00,
356,2.40e-01,-8.00e+00,
357,-2.00e-01,0.00e+00,
358,2.40e-01,0.00e+00,
359,-2.00e-01,-8.00e+00,
360,2.80e-01,-8.00e+00,
361,-1.60e-01,0.00e+00,
362,2.00e-01,8.00e-01,
363,-2.00e-01,-8.00e+00,
364,2.40e-01,-7.20e+00,
365,-2.00e-01,8.00e-01,
366,2.40e-01,8.00e-01,
367,-2.40e-01,-7.20e+00,
368,-1.60e-01,8.00e-01,
369,2.40e-01,-7.20e+00,
370,2.00e-01,-6.40e+00,
371,-4.00e-01,8.00e-01,
372,-2.00e-01,8.00e-01,
373,2.40e-01,-7.20e+00,
374,2.40e-01,-7.20e+00,
375,-2.00e-01,1.60e+00,
376,2.40e-01,-7.20e+00,
377,-1.60e-01,1.60e+00,
378,-2.00e-01,-6.40e+00,
379,2.00e-01,1.60e+00,
380,-2.40e-01,1.60e+00,
381,2.40e-01,-6.40e+00,
382,2.00e-01,-6.40e+00,
383,-2.00e-01,1.60e+00,
384,2.40e-01,1.60e+00,
385,-1.60e-01,-5.60e+00,
386,2.40e-01,1.60e+00,
387,-2.40e-01,-6.40e+00,
388,2.00e-01,-5.60e+00,
389,-2.40e-01,1.60e+00,
390,2.40e-01,-5.60e+00,
391,-1.60e-01,2.40e+00,
392,2.40e-01,2.40e+00,
393,-1.60e-01,-5.60e+00,
394,-2.00e-01,2.40e+00,
395,2.80e-01,-5.60e+00,
396,-2.00e-01,-4.80e+00,
397,2.40e-01,2.40e+00,
398,-1.60e-01,-4.80e+00,
399,2.40e-01,2.40e+00,
400,-8.00e-02,-4.80e+00,
401,2.80e-01,2.40e+00,
402,2.40e-01,-4.80e+00,
403,-1.60e-01,2.40e+00,
404,2.80e-01,-4.80e+00,
405,-1.60e-01,3.20e+00,
406,-1.60e-01,-4.00e+00,
407,2.40e-01,3.20e+00,
408,2.00e-01,-4.00e+00,
409,-2.00e-01,3.20e+00,
410,-2.00e-01,3.20e+00,
411,2.40e-01,-4.00e+00,
412,-1.60e-01,3.20e+00,
413,2.40e-01,-4.00e+00,
414,-2.00e-01,3.20e+00,
415,2.40e-01,-4.00e+00,
416,-1.60e-01,3.20e+00,
417,2.40e-01,-4.00e+00,
418,-1.60e-01,-4.00e+00,
419,2.40e-01,4.00e+00,
420,-2.00e-01,4.00e+00,
421,2.40e-01,-3.20e+00,
422,-2.00e-01,-3.20e+00,
423,2.40e-01,4.00e+00,
424,-2.00e-01,-3.20e+00,
425,2.80e-01,4.00e+00,
426,2.40e-01,-3.20e+00,
427,-1.20e-01,4.00e+00,
428,-1.20e-01,4.00e+00,
429,2.80e-01,-3.20e+00,
430,-1.60e-01,-3.20e+00,
431,2.80e-01,4.00e+00,
432,3.20e-01,-2.40e+00,
433,-1.60e-01,4.80e+00,
434,2.40e-01,-2.40e+00,
435,-2.40e-01,4.80e+00,
436,2.40e-01,4.80e+00,
437,-2.00e-01,-2.40e+00,
438,-1.60e-01,4.80e+00,
439,2.40e-01,-2.40e+00,
440,2.40e-01,4.80e+00,
441,-3.20e-01,-2.40e+00,
442,2.00e-01,4.80e+00,
443,-1.60e-01,-2.40e+00,
444,2.40e-01,4.80e+00,
445,-2.40e-01,-2.40e+00,
446,-1.60e-01,-2.40e+00,
447,2.00e-01,5.60e+00,
448,2.00e-01,-1.60e+00,
449,-2.40e-01,6.40e+00,
450,2.80e-01,5.60e+00,
451,-2.00e-01,-1.60e+00,
452,-1.20e-01,-1.60e+00,
453,2.40e-01,6.40e+00,
454,-1.60e-01,-1.60e+00,
455,2.40e-01,5.60e+00,
456,-2.00e-01,-1.60e+00,
457,2.40e-01,6.40e+00,
458,2.40e-01,-1.60e+00,
459,-2.40e-01,5.60e+00,
460,-3.20e-01,6.40e+00,
461,2.40e-01,-8.00e-01,
462,-1.60e-01,-8.00e-01,
463,2.40e-01,7.20e+00,
464,2.80e-01,7.20e+00,
465,-1.60e-01,-8.00e-01,
466,-1.60e-01,7.20e+00,
467,2.40e-01,-8.00e-01,
468,-1.60e-01,-8.00e-01,
469,2.40e-01,7.20e+00,
470,-1.60e-01,0.00e+00,
471,2.40e-01,7.20e+00,
472,2.40e-01,0.00e+00,
473,-1.60e-01,7.20e+00,
474,-2.00e-01,0.00e+00,
475,2.40e-01,7.20e+00,
476,2.00e-01,0.00e+00,
477,-1.60e-01,8.00e+00,
478,-1.60e-01,0.00e+00,
479,3.60e-01,8.00e+00,
480,2.40e-01,8.00e+00,
481,-2.00e-01,0.00e+00,
482,-3.20e-01,7.20e+00,
483,2.40e-01,0.00e+00,
484,2.40e-01,8.00e-01,
485,-2.00e-01,8.00e+00,
486,-2.00e-01,8.00e-01,
487,2.40e-01,8.00e+00,
488,-2.00e-01,8.00e-01,
489,3.20e-01,8.00e+00,
490,-1.60e-01,8.80e+00,
491,2.40e-01,8.00e-01,
492,-4.40e-01,8.00e-01,
493,2.00e-01,8.80e+00,
494,-2.00e-01,8.80e+00,
495,2.40e-01,8.00e-01,
496,-3.20e-01,8.80e+00,
497,2.40e-01,8.00e-01,
498,-1.60e-01,8.80e+00,
499,2.40e-01,1.60e+00,
500,-1.60e-01,8.80e+00,
501,2.40e-01,1.60e+00,
502,2.80e-01,1.60e+00,
503,-2.00e-01,8.80e+00,
504,3.20e-01,9.60e+00,
505,-1.20e-01,1.60e+00,
506,-5.60e-01,9.60e+00,
507,2.40e-01,1.60e+00,
508,2.40e-01,9.60e+00,
509,-4.00e-01,1.60e+00,
510,-1.60e-01,9.60e+00,
511,2.80e-01,1.60e+00,
512,4.00e-01,2.40e+00,
513,-1.60e-01,9.60e+00,
514,2.40e-01,9.60e+00,
515,-2.00e-01,2.40e+00,
516,2.00e-01,2.40e+00,
517,-1.60e-01,9.60e+00,
518,2.40e-01,3.20e+00,
519,-2.00e-01,1.04e+01,
520,2.40e-01,1.04e+01,
521,-2.40e-01,2.40e+00,
522,-2.00e-01,1.04e+01,
523,2.40e-01,2.40e+00,
524,2.40e-01,1.04e+01,
525,-2.00e-01,2.40e+00,
526,-2.80e-01,1.04e+01,
527,2.40e-01,3.20e+00,
528,2.80e-01,4.00e+00,
529,-2.80e-01,1.04e+01,
530,-4.40e-01,3.20e+00,
531,2.00e-01,1.12e+01,
532,2.80e-01,3.20e+00,
533,-6.40e-01,1.12e+01,
534,4.40e-01,1.12e+01,
535,-7.20e-01,3.20e+00,
536,-1.20e-01,1.12e+01,
537,-1.00e+00,3.20e+00,
538,-4.80e-01,3.20e+00,
539,-1.60e+00,1.12e+01,
540,-1.20e+00,1.12e+01,
541,-2.08e+00,4.80e+00,
542,-1.68e+00,1.12e+01,
543,-2.60e+00,4.00e+00,
544,-2.16e+00,1.12e+01,
545,-3.00e+00,4.80e+00,
546,-2.48e+00,4.00e+00,
547,-3.32e+00,1.20e+01,
548,-3.36e+00,1.20e+01,
549,-2.76e+00,4.80e+00,
550,-2.76e+00,1.20e+01,
551,-3.40e+00,4.80e+00,
552,-3.16e+00,4.80e+00,
553,-3.88e+00,1.20e+01,
554,-4.00e+00,1.20e+01,
555,-3.40e+00,4.80e+00,
556,-3.64e+00,5.60e+00,
557,-2.76e+00,1.20e+01,
558,-3.00e+00,5.60e+00,
559,-2.44e+00,1.20e+01,
560,-3.12e+00,5.60e+00,
561,-2.56e+00,1.28e+01,
562,-3.20e+00,5.60e+00,
563,-2.64e+00,1.28e+01,
564,-2.68e+00,5.60e+00,
565,-3.16e+00,1.28e+01,
566,-2.64e+00,1.28e+01,
567,-3.20e+00,5.60e+00,
568,-3.04e+00,1.28e+01,
569,-2.32e+00,6.40e+00,
570,-2.80e+00,1.28e+01,
571,-2.16e+00,6.40e+00,
572,-2.48e+00,1.28e+01,
573,-1.88e+00,6.40e+00,
574,-2.36e+00,6.40e+00,
575,-1.72e+00,1.36e+01,
576,-1.60e+00,1.36e+01,
577,-2.28e+00,6.40e+00,
578,-2.20e+00,6.40e+00,
579,-1.52e+00,1.36e+01,
580,-1.84e+00,6.40e+00,
581,-8.80e-01,1.36e+01,
582,-1.72e+00,7.20e+00,
583,-7.60e-01,1.36e+01,
584,-1.12e+00,7.20e+00,
585,0.00e+00,1.36e+01,
586,-2.40e-01,7.20e+00,
587,7.20e-01,1.36e+01,
588,6.00e-01,7.20e+00,
589,1.48e+00,1.44e+01,
590,1.12e+00,1.44e+01,
591,1.80e+00,7.20e+00,
592,1.48e+00,1.44e+01,
593,2.08e+00,7.20e+00,
594,1.84e+00,1.44e+01,
595,2.24e+00,7.20e+00,
596,2.00e+00,1.44e+01,
597,2.48e+00,7.20e+00,
598,1.96e+00,1.44e+01,
599,2.56e+00,8.00e+00,
600,2.12e+00,1.44e+01,
601,2.52e+00,8.00e+00,
602,2.52e+00,8.00e+00,
603,2.12e+00,1.52e+01,
604,2.20e+00,8.00e+00,
605,2.52e+00,1.52e+01,
606,2.52e+00,8.00e+00,
607,2.08e+00,1.60e+01,
608,2.48e+00,8.00e+00,
609,2.00e+00,1.52e+01,
610,2.36e+00,8.80e+00,
611,1.68e+00,1.52e+01,
612,2.28e+00,8.80e+00,
613,1.88e+00,1.60e+01,
614,2.20e+00,8.80e+00,
615,1.76e+00,1.52e+01,
616,2.16e+00,8.80e+00,
617,1.64e+00,1.60e+01,
618,2.00e+00,8.80e+00,
619,1.60e+00,1.68e+01,
620,1.96e+00,1.68e+01,
621,1.52e+00,8.80e+00,
622,1.84e+00,8.80e+00,
623,1.48e+00,1.68e+01,
624,1.76e+00,1.68e+01,
625,1.36e+00,8.80e+00,
626,1.72e+00,1.68e+01,
627,1.24e+00,9.60e+00,
628,1.56e+00,1.60e+01,
629,1.20e+00,9.60e+00,
630,1.52e+00,9.60e+00,
631,1.12e+00,1.68e+01,
632,1.44e+00,9.60e+00,
633,1.00e+00,1.76e+01,
634,1.36e+00,9.60e+00,
635,9.60e-01,1.76e+01,
636,9.60e-01,9.60e+00,
637,1.32e+00,1.76e+01,
638,1.24e+00,1.04e+01,
639,8.40e-01,1.76e+01,
640,1.16e+00,1.04e+01,
641,7.60e-01,1.76e+01,
642,1.12e+00,1.68e+01,
643,7.20e-01,1.04e+01,
644,6.80e-01,1.04e+01,
645,1.12e+00,1.76e+01,
646,1.04e+00,1.84e+01,
647,6.40e-01,1.04e+01,
648,1.04e+00,1.04e+01,
649,5.60e-01,1.84e+01,
650,5.60e-01,1.04e+01,
651,9.60e-01,1.84e+01,
652,5.20e-01,1.12e+01,
653,9.60e-01,1.84e+01,
654,8.40e-01,1.84e+01,
655,4.40e-01,1.12e+01,
656,8.40e-01,1.12e+01,
657,3.60e-01,1.84e+01,
658,3.60e-01,1.12e+01,
659,7.60e-01,1.92e+01,
660,7.20e-01,1.12e+01,
661,2.80e-01,1.92e+01,
662,2.00e-01,1.12e+01,
663,6.80e-01,1.92e+01,
664,2.40e-01,1.92e+01,
665,6.80e-01,1.12e+01,
666,6.00e-01,1.12e+01,
667,2.80e-01,1.92e+01,
668,2.00e-01,1.92e+01,
669,6.00e-01,1.20e+01,
670,1.60e-01,1.92e+01,
671,6.00e-01,1.20e+01,
672,1.60e-01,1.92e+01,
673,5.60e-01,1.20e+01,
674,1.60e-01,2.00e+01,
675,5.60e-01,1.20e+01,
676,5.20e-01,2.00e+01,
677,-1.60e-01,1.20e+01,
678,5.60e-01,2.00e+01,
679,1.20e-01,1.20e+01,
680,1.60e-01,2.00e+01,
681,5.20e-01,1.20e+01,
682,8.00e-02,1.28e+01,
683,6.00e-01,2.00e+01,
684,8.00e-02,2.00e+01,
685,4.80e-01,1.28e+01,
686,4.80e-01,1.36e+01,
687,8.00e-02,2.08e+01,
688,4.00e-01,2.08e+01,
689,1.20e-01,1.28e+01,
690,-1.60e-01,1.28e+01,
691,4.80e-01,2.08e+01,
692,4.00e-02,1.28e+01,
693,4.40e-01,2.08e+01,
694,0.00e+00,2.08e+01,
695,4.00e-01,1.28e+01,
696,4.00e-01,2.08e+01,
697,0.00e+00,1.44e+01,
698,0.00e+00,2.08e+01,
699,4.00e-01,1.36e+01,
700,-2.40e-01,2.08e+01,
701,4.40e-01,1.36e+01,
702,3.60e-01,2.16e+01,
703,-4.00e-02,1.44e+01,
704,3.60e-01,1.44e+01,
705,-4.00e-02,2.16e+01,
706,-4.00e-02,2.16e+01,
707,3.20e-01,1.44e+01,
708,3.60e-01,1.44e+01,
709,-1.20e-01,2.16e+01,
710,3.20e-01,1.52e+01,
711,-4.00e-02,2.16e+01,
712,3.20e-01,1.52e+01,
713,-8.00e-02,2.16e+01,
714,-8.00e-02,1.52e+01,
715,2.80e-01,2.24e+01,
716,2.80e-01,1.52e+01,
717,-8.00e-02,2.24e+01,
718,-4.00e-02,2.24e+01,
719,3.20e-01,1.52e+01,
720,-2.00e-01,2.24e+01,
721,3.20e-01,1.52e+01,
722,2.80e-01,2.24e+01,
723,-1.20e-01,1.52e+01,
724,-8.00e-02,2.24e+01,
725,3.20e-01,1.60e+01,
726,2.80e-01,2.24e+01,
727,-1.20e-01,1.60e+01,
728,-1.20e-01,2.24e+01,
729,3.20e-01,1.60e+01,
730,3.20e-01,1.60e+01,
731,-1.60e-01,2.32e+01,
732,2.40e-01,1.60e+01,
733,-1.60e-01,2.32e+01,
734,2.80e-01,1.60e+01,
735,-1.20e-01,2.32e+01,
736,2.40e-01,1.60e+01,
737,-1.60e-01,2.32e+01,
738,2.80e-01,1.68e+01,
739,-1.60e-01,2.32e+01,
740,-1.60e-01,1.68e+01,
741,2.80e-01,2.32e+01,
742,-1.60e-01,1.68e+01,
743,2.80e-01,2.32e+01,
744,-8.00e-02,2.40e+01,
745,2.80e-01,1.68e+01,
746,-1.60e-01,2.40e+01,
747,2.80e-01,1.68e+01,
748,-2.00e-01,2.40e+01,
749,2.80e-01,1.68e+01,
750,-1.20e-01,2.40e+01,
751,2.40e-01,1.68e+01,
752,2.40e-01,2.40e+01,
753,-1.20e-01,1.76e+01,
754,2.80e-01,2.40e+01,
755,-1.60e-01,1.76e+01,
756,2.80e-01,2.40e+01,
757,-1.60e-01,1.76e+01,
758,-1.60e-01,1.76e+01,
759,2.80e-01,2.48e+01,
760,-8.00e-02,1.76e+01,
761,2.80e-01,2.48e+01,
762,2.80e-01,1.76e+01,
763,-1.20e-01,2.48e+01,
764,-8.00e-02,1.76e+01,
765,3.20e-01,2.48e+01,
766,-1.60e-01,2.24e+01,
767,2.80e-01,-2.40e+01,
768,-2.00e-01,-2.40e+01,
769,2.80e-01,-1.68e+01,
770,-1.20e-01,-1.68e+01,
771,2.40e-01,-2.40e+01,
772,-1.20e-01,-1.68e+01,
773,2.80e-01,-2.40e+01,
774,2.40e-01,-1.68e+01,
775,-2.40e-01,-2.40e+01,
776,2.00e-01,-1.68e+01,
777,-4.80e-01,-2.32e+01,
778,-2.00e-01,-1.68e+01,
779,2.40e-01,-2.32e+01,
780,2.40e-01,-2.32e+01,
781,-1.60e-01,-1.60e+01,
782,-1.60e-01,-2.32e+01,
783,2.40e-01,-1.60e+01,
784,2.80e-01,-2.32e+01,
785,-1.60e-01,-1.60e+01,
786,2.00e-01,-2.32e+01,
787,-1.60e-01,-1.60e+01,
788,2.80e-01,-2.32e+01,
789,-2.00e-01,-1.60e+01,
790,-2.00e-01,-2.24e+01,
791,2.40e-01,-1.60e+01,
792,2.40e-01,-2.24e+01,
793,-2.00e-01,-1.60e+01,
794,2.40e-01,-2.24e+01,
795,-2.00e-01,-1.52e+01,
796,2.80e-01,-2.24e+01,
797,-2.00e-01,-1.52e+01,
798,2.00e-01,-1.52e+01,
799,-2.40e-01,-2.24e+01,
800,-2.00e-01,-1.52e+01,
801,2.80e-01,-2.24e+01,
802,-1.60e-01,-1.52e+01,
803,2.40e-01,-2.24e+01,
804,2.00e-01,-1.52e+01,
805,-2.00e-01,-2.16e+01,
806,2.00e-01,-1.52e+01,
807,-2.00e-01,-2.16e+01,
808,2.40e-01,-2.16e+01,
809,-2.00e-01,-1.44e+01,
810,2.40e-01,-2.16e+01,
811,-2.00e-01,-1.44e+01,
812,2.40e-01,-2.16e+01,
813,-1.60e-01,-1.44e+01,
814,-2.00e-01,-2.16e+01,
815,2.00e-01,-1.44e+01,
816,2.40e-01,-2.16e+01,
817,-2.00e-01,-1.44e+01,
818,-2.00e-01,-2.08e+01,
819,2.80e-01,-1.44e+01,
820,-1.60e-01,-2.08e+01,
821,2.40e-01,-1.44e+01,
822,2.40e-01,-1.44e+01,
823,-4.80e-01,-2.08e+01,
824,-2.00e-01,-2.08e+01,
825,2.40e-01,-1.28e+01,
826,2.40e-01,-2.08e+01,
827,-1.60e-01,-1.28e+01,
828,2.40e-01,-1.36e+01,
829,-2.00e-01,-2.08e+01,
830,-1.20e-01,-1.28e+01,
831,2.80e-01,-2.08e+01,
832,2.00e-01,-1.36e+01,
833,-2.40e-01,-2.00e+01,
834,-2.00e-01,-2.00e+01,
835,2.40e-01,-1.28e+01,
836,-1.60e-01,-2.00e+01,
837,2.80e-01,-1.28e+01,
838,-2.00e-01,-2.00e+01,
839,2.80e-01,-1.28e+01,
840,-2.00e-01,-2.00e+01,
841,2.40e-01,-1.20e+01,
842,2.00e-01,-2.00e+01,
843,-1.60e-01,-1.20e+01,
844,-2.00e-01,-2.00e+01,
845,2.00e-01,-1.20e+01,
846,2.40e-01,-1.92e+01,
847,-2.00e-01,-1.20e+01,
848,-1.60e-01,-1.92e+01,
849,2.40e-01,-1.20e+01,
850,-2.00e-01,-1.92e+01,
851,2.00e-01,-1.20e+01,
852,2.00e-01,-1.92e+01,
853,-1.60e-01,-1.12e+01,
854,-1.60e-01,-1.92e+01,
855,2.80e-01,-1.12e+01,
856,-1.60e-01,-1.92e+01,
857,2.80e-01,-1.12e+01,
858,2.00e-01,-1.12e+01,
859,-2.00e-01,-1.92e+01,
860,-2.00e-01,-1.84e+01,
861,2.40e-01,-1.12e+01,
862,2.40e-01,-1.84e+01,
863,-2.00e-01,-1.12e+01,
864,-1.60e-01,-1.84e+01,
865,2.80e-01,-1.12e+01,
866,-1.60e-01,-1.84e+01,
867,2.40e-01,-1.04e+01,
868,2.40e-01,-1.04e+01,
869,-1.20e-01,-1.84e+01,
870,2.40e-01,-1.84e+01,
871,-1.60e-01,-1.04e+01,
872,-4.00e-01,-1.76e+01,
873,2.80e-01,-1.04e+01,
874,-2.00e-01,-1.76e+01,
875,2.40e-01,-1.04e+01,
876,2.40e-01,-1.76e+01,
877,-2.00e-01,-1.04e+01,
878,2.40e-01,-1.76e+01,
879,-2.00e-01,-9.60e+00,
880,2.40e-01,-9.60e+00,
881,-1.60e-01,-1.76e+01,
882,-2.00e-01,-9.60e+00,
883,2.00e-01,-1.76e+01,
884,2.00e-01,-9.60e+00,
885,-1.60e-01,-1.76e+01,
886,-2.40e-01,-9.60e+00,
887,2.40e-01,-1.76e+01,
888,-2.00e-01,-1.60e+01,
889,2.80e-01,-9.60e+00,
890,-2.00e-01,-1.68e+01,
891,2.00e-01,-9.60e+00,
892,2.40e-01,-1.68e+01,
893,-1.60e-01,-8.80e+00,
894,2.40e-01,-1.68e+01,
895,-4.00e-01,-8.80e+00,
896,2.40e-01,-1.68e+01,
897,-1.20e-01,-8.80e+00,
898,-2.00e-01,-1.60e+01,
899,2.80e-01,-8.80e+00,
900,2.40e-01,-1.68e+01,
901,-1.60e-01,-8.80e+00,
902,2.40e-01,-8.80e+00,
903,-1.60e-01,-1.60e+01,
904,-1.60e-01,-8.80e+00,
905,2.80e-01,-1.60e+01,
906,2.40e-01,-8.80e+00,
907,-1.60e-01,-1.60e+01,
908,2.40e-01,-8.00e+00,
909,-1.20e-01,-1.60e+01,
910,-2.00e-01,-8.00e+00,
911,2.80e-01,-1.52e+01,
912,2.80e-01,-8.00e+00,
913,-1.20e-01,-1.60e+01,
914,-1.60e-01,-1.52e+01,
915,2.80e-01,-8.00e+00,
916,2.00e-01,-1.44e+01,
917,-1.60e-01,-8.00e+00,
918,2.40e-01,-1.44e+01,
919,-4.40e-01,-8.00e+00,
920,2.40e-01,-1.44e+01,
921,-2.00e-01,-8.00e+00,
922,-1.60e-01,-1.44e+01,
923,2.80e-01,-7.20e+00,
924,-1.20e-01,-1.44e+01,
925,3.20e-01,-7.20e+00,
926,-2.00e-01,-7.20e+00,
927,2.80e-01,-1.44e+01,
928,-2.80e-01,-7.20e+00,
929,2.40e-01,-1.44e+01,
930,-2.40e-01,-7.20e+00,
931,2.80e-01,-1.36e+01,
932,2.00e-01,-7.20e+00,
933,-1.60e-01,-1.36e+01,
934,-2.00e-01,-1.36e+01,
935,2.80e-01,-6.40e+00,
936,-1.60e-01,-6.40e+00,
937,2.40e-01,-1.36e+01,
938,-1.60e-01,-6.40e+00,
939,2.40e-01,-1.36e+01,
940,-1.60e-01,-1.36e+01,
941,2.80e-01,-6.40e+00,
942,-1.60e-01,-1.36e+01,
943,2.00e-01,-6.40e+00,
944,2.40e-01,-1.28e+01,
945,-1.60e-01,-6.40e+00,
946,-1.60e-01,-1.28e+01,
947,2.40e-01,-6.40e+00,
948,-2.00e-01,-1.28e+01,
949,2.40e-01,-5.60e+00,
950,-1.60e-01,-5.60e+00,
951,2.80e-01,-1.28e+01,
952,-2.00e-01,-5.60e+00,
953,2.00e-01,-1.28e+01,
954,2.00e-01,-5.60e+00,
955,-2.00e-01,-1.28e+01,
956,-2.00e-01,-5.60e+00,
957,2.40e-01,-1.28e+01,
958,-2.00e-01,-5.60e+00,
959,2.00e-01,-1.20e+01,
960,2.40e-01,-1.20e+01,
961,-1.60e-01,-5.60e+00,
962,2.40e-01,-1.20e+01,
963,-2.00e-01,-4.80e+00,
964,2.40e-01,-1.20e+01,
965,-1.60e-01,-4.80e+00,
966,-1.60e-01,-1.20e+01,
967,2.00e-01,-4.80e+00,
968,-1.60e-01,-1.20e+01,
969,2.80e-01,-4.80e+00,
970,-1.60e-01,-1.20e+01,
971,2.40e-01,-4.80e+00,
972,-1.20e-01,-1.12e+01,
973,2.40e-01,-4.80e+00,
974,2.80e-01,-1.12e+01,
975,-1.60e-01,-4.80e+00,
976,2.40e-01,-1.12e+01,
977,-1.20e-01,-4.00e+00,
978,-2.80e-01,-1.12e+01,
979,2.80e-01,-3.20e+00,
980,-1.60e-01,-4.00e+00,
981,2.40e-01,-1.12e+01,
982,2.40e-01,-4.00e+00,
983,-3.20e-01,-1.12e+01,
984,2.40e-01,-4.00e+00,
985,-2.00e-01,-1.12e+01,
986,2.40e-01,-4.00e+00,
987,-2.00e-01,-1.04e+01,
988,-1.20e-01,-4.00e+00,
989,2.40e-01,-1.04e+01,
990,2.80e-01,-1.04e+01,
991,-2.00e-01,-3.20e+00,
992,-1.60e-01,-1.04e+01,
993,2.80e-01,-3.20e+00,
994,2.80e-01,-1.04e+01,
995,-1.60e-01,-2.40e+00,
996,2.40e-01,-1.04e+01,
997,-1.20e-01,-2.40e+00,
998,2.40e-01,-1.04e+01,
999,-2.00e-01,-2.40e+00,
1000,2.40e-01,-9.60e+00,
1001,-1.20e-01,-3.20e+00,
1002,-1.20e-01,-9.60e+00,
1003,2.80e-01,-2.40e+00,
1004,-1.20e-01,-2.40e+00,
1005,2.40e-01,-9.60e+00,
1006,-2.80e-01,-1.60e+00,
1007,3.60e-01,-9.60e+00,
1008,2.80e-01,-2.40e+00,
1009,-1.20e-01,-9.60e+00,
1010,-1.20e-01,-9.60e+00,
1011,2.80e-01,-1.60e+00,
1012,-1.60e-01,-9.60e+00,
1013,2.40e-01,-1.60e+00,
1014,-1.60e-01,-8.80e+00,
1015,2.80e-01,-1.60e+00,
1016,-1.60e-01,-1.60e+00,
1017,3.20e-01,-8.80e+00,
1018,-1.60e-01,-8.80e+00,
1019,2.80e-01,-8.00e-01,
1020,-1.20e-01,-8.80e+00,
1021,2.80e-01,-8.00e-01,
1022,2.80e-01,-8.00e-01,
1023,-1.60e-01,-8.80e+00,
1024,2.40e-01,-8.00e-01,
1025,-1.60e-01,-8.80e+00,
1026,2.40e-01,-8.80e+00,
1027,-1.20e-01,-8.00e-01,
1028,-1.60e-01,-8.80e+00,
1029,2.80e-01,-8.00e-01,
1030,2.40e-01,-8.80e+00,
1031,-1.20e-01,-8.00e-01,
1032,2.40e-01,0.00e+00,
1033,-5.20e-01,-8.80e+00,
1034,-1.60e-01,0.00e+00,
1035,2.40e-01,-8.00e+00,
1036,2.40e-01,0.00e+00,
1037,-2.40e-01,-8.00e+00,
1038,-2.00e-01,-8.00e+00,
1039,2.80e-01,0.00e+00,
1040,2.40e-01,0.00e+00,
1041,-2.00e-01,-8.00e+00,
1042,-1.60e-01,-8.00e+00,
1043,2.40e-01,0.00e+00,
1044,2.80e-01,-8.00e+00,
1045,-1.60e-01,0.00e+00,
1046,2.40e-01,-8.00e+00,
1047,-1.20e-01,8.00e-01,
1048,2.40e-01,-8.00e+00,
1049,-1.60e-01,8.00e-01,
1050,-1.60e-01,-6.40e+00,
1051,2.00e-01,8.00e-01,
1052,-2.00e-01,-6.40e+00,
1053,2.80e-01,8.00e-01,
1054,-3.20e-01,-6.40e+00,
1055,2.40e-01,8.00e-01,
1056,2.40e-01,8.00e-01,
1057,-2.40e-01,-6.40e+00,
1058,-1.20e-01,8.00e-01,
1059,2.80e-01,-7.20e+00,
1060,3.60e-01,-7.20e+00,
1061,-2.00e-01,1.60e+00,
1062,2.80e-01,1.60e+00,
1063,-2.00e-01,-6.40e+00,
1064,-2.00e-01,1.60e+00,
1065,2.40e-01,-6.40e+00,
1066,2.40e-01,-5.60e+00,
1067,-2.00e-01,1.60e+00,
1068,2.40e-01,1.60e+00,
1069,-1.60e-01,-6.40e+00,
1070,-2.00e-01,-6.40e+00,
1071,2.40e-01,1.60e+00,
1072,-1.60e-01,-6.40e+00,
1073,2.80e-01,1.60e+00,
1074,2.00e-01,-6.40e+00,
1075,-1.60e-01,2.40e+00,
1076,2.80e-01,-6.40e+00,
1077,-1.60e-01,2.40e+00,
1078,-2.00e-01,-4.80e+00,
1079,2.40e-01,2.40e+00,
1080,-1.20e-01,2.40e+00,
1081,2.40e-01,-5.60e+00,
1082,-1.60e-01,2.40e+00,
1083,2.40e-01,-4.80e+00,
1084,-1.20e-01,2.40e+00,
1085,2.40e-01,-4.80e+00,
1086,2.40e-01,2.40e+00,
1087,-2.00e-01,-4.80e+00,
1088,-2.00e-01,2.40e+00,
1089,2.40e-01,-4.80e+00,
1090,-1.60e-01,3.20e+00,
1091,2.40e-01,-5.60e+00,
1092,2.80e-01,-4.00e+00,
1093,-1.60e-01,3.20e+00,
1094,-2.00e-01,-4.00e+00,
1095,2.80e-01,3.20e+00,
1096,2.80e-01,-4.00e+00,
1097,-2.00e-01,3.20e+00,
1098,-1.20e-01,-4.00e+00,
1099,2.40e-01,3.20e+00,
1100,2.40e-01,-4.00e+00,
1101,-4.00e-01,3.20e+00,
1102,-1.60e-01,-4.00e+00,
1103,2.40e-01,3.20e+00,
1104,-2.00e-01,-4.00e+00,
1105,2.40e-01,3.20e+00,
1106,2.40e-01,4.00e+00,
1107,-1.60e-01,-3.20e+00,
1108,2.40e-01,4.00e+00,
1109,-1.60e-01,-3.20e+00,
1110,-1.60e-01,4.00e+00,
1111,2.00e-01,-3.20e+00,
1112,-2.00e-01,4.00e+00,
1113,2.40e-01,-3.20e+00,
1114,2.40e-01,4.00e+00,
1115,-1.60e-01,-3.20e+00,
1116,2.00e-01,4.00e+00,
1117,-2.00e-01,-3.20e+00,
1118,-1.20e-01,-2.40e+00,
1119,2.00e-01,4.80e+00,
1120,-1.60e-01,-2.40e+00,
1121,2.40e-01,4.80e+00,
1122,-2.00e-01,-2.40e+00,
1123,2.00e-01,4.80e+00,
1124,2.40e-01,-2.40e+00,
1125,-1.60e-01,4.80e+00,
1126,-1.60e-01,-2.40e+00,
1127,2.40e-01,4.80e+00,
1128,-1.60e-01,-2.40e+00,
1129,2.80e-01,4.80e+00,
1130,-1.60e-01,-2.40e+00,
1131,2.80e-01,4.80e+00,
1132,2.00e-01,-1.60e+00,
1133,-2.00e-01,5.60e+00,
1134,-2.00e-01,5.60e+00,
1135,2.00e-01,-1.60e+00,
1136,-2.00e-01,5.60e+00,
1137,2.00e-01,-1.60e+00,
1138,2.00e-01,6.40e+00,
1139,-2.00e-01,-1.60e+00,
1140,2.00e-01,5.60e+00,
1141,-3.60e-01,-1.60e+00,
1142,1.60e-01,-1.60e+00,
1143,-2.00e-01,6.40e+00,
1144,2.40e-01,-1.60e+00,
1145,-2.40e-01,6.40e+00,
1146,2.00e-01,-8.00e-01,
1147,-2.00e-01,7.20e+00,
1148,2.00e-01,-8.00e-01,
1149,-2.80e-01,7.20e+00,
1150,2.40e-01,6.40e+00,
1151,-2.40e-01,-8.00e-01,
1152,-1.60e-01,-8.00e-01,
1153,2.40e-01,7.20e+00,
1154,-1.60e-01,-8.00e-01,
1155,2.40e-01,7.20e+00,
1156,-1.60e-01,0.00e+00,
1157,2.80e-01,7.20e+00,
1158,2.00e-01,7.20e+00,
1159,-1.60e-01,0.00e+00,
1160,-2.40e-01,0.00e+00,
1161,2.80e-01,7.20e+00,
1162,2.40e-01,0.00e+00,
1163,-1.60e-01,8.00e+00,
1164,-1.60e-01,8.00e+00,
1165,2.40e-01,0.00e+00,
1166,2.40e-01,0.00e+00,
1167,-2.00e-01,8.00e+00,
1168,-1.60e-01,0.00e+00,
1169,2.40e-01,8.00e+00,
1170,3.20e-01,8.00e-01,
1171,-1.20e-01,8.00e+00,
1172,-1.20e-01,8.00e-01,
1173,3.20e-01,8.00e+00,
1174,-1.20e-01,8.00e-01,
1175,2.80e-01,8.00e+00,
1176,-8.00e-02,8.80e+00,
1177,2.40e-01,8.00e-01,
1178,-1.20e-01,8.80e+00,
1179,2.80e-01,8.00e-01,
1180,2.00e-01,8.00e-01,
1181,-1.60e-01,8.80e+00,
1182,-1.60e-01,8.00e-01,
1183,2.40e-01,8.80e+00,
1184,-1.20e-01,1.60e+00,
1185,2.40e-01,8.80e+00,
1186,2.40e-01,1.60e+00,
1187,-1.60e-01,8.80e+00,
1188,-2.40e-01,8.80e+00,
1189,2.40e-01,1.60e+00,
1190,2.40e-01,9.60e+00,
1191,-1.60e-01,1.60e+00,
1192,2.40e-01,9.60e+00,
1193,-2.40e-01,1.60e+00,
1194,-2.00e-01,1.60e+00,
1195,2.80e-01,9.60e+00,
1196,-2.00e-01,2.40e+00,
1197,2.40e-01,9.60e+00,
1198,2.40e-01,9.60e+00,
1199,-3.20e-01,2.40e+00,
