X,CH1,CH2,Start,Increment,
Sequence,Volt,Volt,-3.000000e+01,5.000000e-02
0,4.00e-02,-2.56e+01,
1,4.00e-01,-3.20e+01,
2,0.00e+00,-3.20e+01,
3,4.40e-01,-2.48e+01,
4,0.00e+00,-2.56e+01,
5,4.40e-01,-3.20e+01,
6,0.00e+00,-3.20e+01,
7,4.40e-01,-2.48e+01,
8,4.00e-01,-3.20e+01,
9,0.00e+00,-2.48e+01,
10,4.00e-01,-3.12e+01,
11,-1.20e-01,-2.48e+01,
12,0.00e+00,-3.12e+01,
13,3.60e-01,-2.48e+01,
14,-4.00e-02,-3.12e+01,
15,3.60e-01,-2.48e+01,
16,3.20e-01,-3.12e+01,
17,-4.00e-02,-2.48e+01,
18,-1.20e-01,-3.12e+01,
19,3.60e-01,-2.40e+01,
20,3.20e-01,-3.12e+01,
21,-1.20e-01,-2.40e+01,
22,3.20e-01,-2.40e+01,
23,-4.00e-02,-3.12e+01,
24,-4.00e-02,-2.40e+01,
25,3.60e-01,-3.12e+01,
26,-8.00e-02,-2.40e+01,
27,3.60e-01,-3.04e+01,
28,-8.00e-02,-2.40e+01,
29,3.60e-01,-3.04e+01,
30,3.60e-01,-3.04e+01,
31,-4.00e-02,-2.32e+01,
32,3.20e-01,-2.32e+01,
33,-8.00e-02,-3.04e+01,
34,3.20e-01,-3.04e+01,
35,-1.20e-01,-2.32e+01,
36,2.80e-01,-3.04e+01,
37,-1.60e-01,-2.32e+01,
38,3.20e-01,-3.04e+01,
39,-1.60e-01,-2.32e+01,
40,-1.20e-01,-2.96e+01,
41,3.20e-01,-2.32e+01,
42,2.80e-01,-2.96e+01,
43,-1.60e-01,-2.32e+01,
44,-1.20e-01,-2.32e+01,
45,2.80e-01,-2.96e+01,
46,-1.60e-01,-2.96e+01,
47,3.60e-01,-2.24e+01,
48,2.80e-01,-2.24e+01,
49,-8.00e-02,-2.96e+01,
50,2.80e-01,-2.24e+01,
51,-1.20e-01,-2.96e+01,
52,-1.20e-01,-2.24e+01,
53,2.80e-01,-2.96e+01,
54,-1.60e-01,-2.24e+01,
55,4.00e-01,-2.88e+01,
56,2.40e-01,-2.88e+01,
57,-1.60e-01,-2.24e+01,
58,2.80e-01,-2.88e+01,
59,-8.00e-02,-2.16e+01,
60,-1.20e-01,-2.88e+01,
61,2.80e-01,-2.08e+01,
62,2.40e-01,-2.88e+01,
63,-1.60e-01,-2.16e+01,
64,-1.60e-01,-2.88e+01,
65,2.80e-01,-2.08e+01,
66,-1.60e-01,-2.88e+01,
67,3.20e-01,-2.08e+01,
68,2.80e-01,-2.80e+01,
69,-1.60e-01,-2.16e+01,
70,2.40e-01,-2.16e+01,
71,-2.40e-01,-2.80e+01,
72,2.40e-01,-2.16e+01,
73,-2.00e-01,-2.80e+01,
74,-1.60e-01,-2.08e+01,
75,2.80e-01,-2.80e+01,
76,-1.20e-01,-2.80e+01,
77,2.80e-01,-2.00e+01,
78,2.40e-01,-2.80e+01,
79,-2.00e-01,-2.00e+01,
80,-1.60e-01,-2.80e+01,
81,2.40e-01,-2.00e+01,
82,2.40e-01,-2.72e+01,
83,-2.00e-01,-2.00e+01,
84,2.80e-01,-2.72e+01,
85,-5.20e-01,-2.00e+01,
86,-6.80e-01,-2.72e+01,
87,1.00e+00,-2.00e+01,
88,2.40e-01,-2.72e+01,
89,-8.40e-01,-1.92e+01,
90,-2.80e-01,-2.72e+01,
91,-1.44e+00,-1.92e+01,
92,-9.20e-01,-2.72e+01,
93,-1.76e+00,-1.92e+01,
94,-1.20e+00,-2.72e+01,
95,-1.92e+00,-1.92e+01,
96,-1.36e+00,-1.92e+01,
97,-2.12e+00,-2.72e+01,
98,-1.72e+00,-2.64e+01,
99,-2.32e+00,-1.92e+01,
100,-1.96e+00,-1.92e+01,
101,-2.52e+00,-2.64e+01,
102,-2.60e+00,-1.92e+01,
103,-1.96e+00,-2.64e+01,
104,-2.08e+00,-1.84e+01,
105,-2.64e+00,-2.64e+01,
106,-2.48e+00,-1.84e+01,
107,-1.96e+00,-2.64e+01,
108,-2.44e+00,-1.84e+01,
109,-1.92e+00,-2.64e+01,
110,-1.68e+00,-1.84e+01,
111,-2.24e+00,-2.64e+01,
112,-2.36e+00,-2.56e+01,
113,-1.72e+00,-1.84e+01,
114,-1.56e+00,-2.56e+01,
115,-2.16e+00,-1.84e+01,
116,-2.04e+00,-2.56e+01,
117,-1.44e+00,-1.76e+01,
118,-2.08e+00,-2.56e+01,
119,-1.36e+00,-1.76e+01,
120,-1.12e+00,-2.56e+01,
121,-1.88e+00,-1.76e+01,
122,-1.80e+00,-2.56e+01,
123,-1.04e+00,-1.76e+01,
124,-1.08e+00,-1.76e+01,
125,-1.72e+00,-2.56e+01,
126,-1.76e+00,-1.76e+01,
127,-1.08e+00,-2.48e+01,
128,-1.76e+00,-1.76e+01,
129,-1.24e+00,-2.48e+01,
130,-1.24e+00,-2.48e+01,
131,-2.16e+00,-1.68e+01,
132,-2.16e+00,-1.68e+01,
133,-1.28e+00,-2.48e+01,
134,-1.92e+00,-1.68e+01,
135,-1.04e+00,-2.40e+01,
136,-1.44e+00,-2.40e+01,
137,-4.80e-01,-1.68e+01,
138,-1.00e+00,-2.48e+01,
139,-2.40e-01,-1.68e+01,
140,-8.40e-01,-2.32e+01,
141,-8.00e-02,-1.68e+01,
142,-6.40e-01,-1.68e+01,
143,0.00e+00,-2.40e+01,
144,-2.80e-01,-2.32e+01,
145,6.00e-01,-1.60e+01,
146,3.60e-01,-2.40e+01,
147,1.08e+00,-1.60e+01,
148,7.60e-01,-1.60e+01,
149,1.40e+00,-2.40e+01,
150,1.08e+00,-1.60e+01,
151,1.56e+00,-2.40e+01,
152,1.32e+00,-1.60e+01,
153,1.80e+00,-2.32e+01,
154,1.92e+00,-1.60e+01,
155,1.24e+00,-2.24e+01,
156,1.52e+00,-1.60e+01,
157,1.92e+00,-2.24e+01,
158,1.56e+00,-2.24e+01,
159,1.96e+00,-1.52e+01,
160,2.04e+00,-2.24e+01,
161,1.56e+00,-1.52e+01,
162,1.56e+00,-2.24e+01,
163,1.96e+00,-1.52e+01,
164,1.56e+00,-2.24e+01,
165,1.96e+00,-1.52e+01,
166,1.88e+00,-2.24e+01,
167,1.52e+00,-1.52e+01,
168,1.88e+00,-2.16e+01,
169,1.44e+00,-1.52e+01,
170,1.44e+00,-2.16e+01,
171,1.76e+00,-1.52e+01,
172,1.76e+00,-1.52e+01,
173,1.32e+00,-2.16e+01,
174,1.24e+00,-1.44e+01,
175,1.68e+00,-2.16e+01,
176,1.20e+00,-2.16e+01,
177,1.56e+00,-1.44e+01,
178,1.52e+00,-1.44e+01,
179,9.60e-01,-2.16e+01,
180,1.52e+00,-1.44e+01,
181,6.80e-01,-2.16e+01,
182,1.44e+00,-1.44e+01,
183,1.00e+00,-2.08e+01,
184,1.32e+00,-1.44e+01,
185,8.80e-01,-2.08e+01,
186,1.28e+00,-2.08e+01,
187,8.40e-01,-1.36e+01,
188,1.20e+00,-2.08e+01,
189,7.60e-01,-1.36e+01,
190,1.16e+00,-1.36e+01,
191,7.20e-01,-2.08e+01,
192,7.20e-01,-2.08e+01,
193,1.08e+00,-1.36e+01,
194,1.00e+00,-2.08e+01,
195,6.00e-01,-1.36e+01,
196,1.00e+00,-2.00e+01,
197,5.60e-01,-1.36e+01,
198,9.60e-01,-2.00e+01,
199,3.60e-01,-1.36e+01,
200,4.40e-01,-2.00e+01,
201,1.00e+00,-1.28e+01,
202,4.80e-01,-1.28e+01,
203,8.80e-01,-2.00e+01,
204,8.40e-01,-1.28e+01,
205,4.00e-01,-2.00e+01,
206,8.40e-01,-1.28e+01,
207,4.40e-01,-2.00e+01,
208,4.00e-02,-1.28e+01,
209,7.60e-01,-2.00e+01,
210,7.60e-01,-1.28e+01,
211,2.80e-01,-1.92e+01,
212,3.20e-01,-1.92e+01,
213,6.80e-01,-1.28e+01,
214,6.80e-01,-1.92e+01,
215,2.00e-01,-1.20e+01,
216,2.00e-01,-1.92e+01,
217,6.40e-01,-1.20e+01,
218,6.40e-01,-1.20e+01,
219,2.00e-01,-1.92e+01,
220,2.00e-01,-1.92e+01,
221,6.40e-01,-1.12e+01,
222,5.60e-01,-1.92e+01,
223,1.20e-01,-1.20e+01,
224,5.20e-01,-1.84e+01,
225,1.20e-01,-1.12e+01,
226,5.20e-01,-1.84e+01,
227,1.20e-01,-1.12e+01,
228,4.80e-01,-1.84e+01,
229,1.20e-01,-1.12e+01,
230,8.00e-02,-1.12e+01,
231,4.80e-01,-1.84e+01,
232,4.00e-02,-1.84e+01,
233,4.80e-01,-1.04e+01,
234,4.00e-01,-1.12e+01,
235,4.00e-02,-1.84e+01,
236,4.00e-02,-1.04e+01,
237,4.40e-01,-1.84e+01,
238,4.00e-01,-1.84e+01,
239,4.00e-02,-1.04e+01,
240,4.00e-02,-1.76e+01,
241,5.20e-01,-1.04e+01,
242,4.40e-01,-1.76e+01,
243,4.00e-02,-1.04e+01,
244,4.40e-01,-1.04e+01,
245,-8.00e-02,-1.76e+01,
246,4.00e-01,-9.60e+00,
247,0.00e+00,-1.76e+01,
248,3.60e-01,-9.60e+00,
249,0.00e+00,-1.76e+01,
250,3.60e-01,-1.76e+01,
251,0.00e+00,-9.60e+00,
252,3.60e-01,-1.68e+01,
253,-4.00e-02,-9.60e+00,
254,4.00e-01,-9.60e+00,
255,-4.00e-02,-1.68e+01,
256,-1.20e-01,-9.60e+00,
257,3.60e-01,-1.68e+01,
258,3.20e-01,-1.68e+01,
259,-4.00e-02,-8.80e+00,
260,3.60e-01,-1.68e+01,
261,-8.00e-02,-8.80e+00,
262,0.00e+00,-8.80e+00,
263,3.60e-01,-1.68e+01,
264,-8.00e-02,-1.68e+01,
265,3.60e-01,-8.80e+00,
266,3.60e-01,-1.68e+01,
267,-8.00e-02,-8.80e+00,
268,-1.20e-01,-1.60e+01,
269,3.20e-01,-8.80e+00,
270,2.80e-01,-8.80e+00,
271,-8.00e-02,-1.60e+01,
272,3.60e-01,-8.00e+00,
273,-1.20e-01,-1.60e+01,
274,2.80e-01,-1.60e+01,
275,-1.60e-01,-8.00e+00,
276,-1.20e-01,-1.60e+01,
277,3.20e-01,-8.00e+00,
278,-1.20e-01,-8.00e+00,
279,3.60e-01,-1.60e+01,
280,-1.20e-01,-8.00e+00,
281,2.40e-01,-1.52e+01,
282,2.80e-01,-8.00e+00,
283,-1.60e-01,-1.52e+01,
284,-1.20e-01,-1.52e+01,
285,2.80e-01,-7.20e+00,
286,2.40e-01,-7.20e+00,
287,-1.60e-01,-1.52e+01,
288,2.40e-01,-1.44e+01,
289,-1.60e-01,-7.20e+00,
290,2.80e-01,-1.44e+01,
291,-1.20e-01,-7.20e+00,
292,-1.60e-01,-7.20e+00,
293,2.80e-01,-1.52e+01,
294,2.40e-01,-1.44e+01,
295,-2.80e-01,-7.20e+00,
296,2.80e-01,-1.44e+01,
297,-2.00e-01,-7.20e+00,
298,2.40e-01,-6.40e+00,
299,-4.00e-01,-1.44e+01,
300,-1.20e-01,-6.40e+00,
301,2.80e-01,-1.44e+01,
302,-1.20e-01,-6.40e+00,
303,2.80e-01,-1.44e+01,
304,-1.20e-01,-6.40e+00,
305,2.80e-01,-1.44e+01,
306,2.80e-01,-6.40e+00,
307,-8.00e-02,-1.44e+01,
308,2.80e-01,-6.40e+00,
309,-1.20e-01,-1.28e+01,
310,2.80e-01,-6.40e+00,
311,-1.60e-01,-1.28e+01,
312,2.80e-01,-5.60e+00,
313,-1.60e-01,-1.36e+01,
314,2.80e-01,-5.60e+00,
315,-1.20e-01,-1.28e+01,
316,2.80e-01,-1.28e+01,
317,-1.60e-01,-5.60e+00,
318,-1.20e-01,-1.28e+01,
319,2.80e-01,-5.60e+00,
320,2.80e-01,-1.36e+01,
321,-1.60e-01,-5.60e+00,
322,-1.20e-01,-1.20e+01,
323,2.40e-01,-5.60e+00,
324,2.40e-01,-1.28e+01,
325,-2.00e-01,-5.60e+00,
326,2.40e-01,-1.20e+01,
327,-1.60e-01,-4.80e+00,
328,2.40e-01,-1.20e+01,
329,-2.00e-01,-4.80e+00,
330,-1.60e-01,-4.80e+00,
331,2.80e-01,-1.20e+01,
332,-1.20e-01,-4.80e+00,
333,2.40e-01,-1.20e+01,
334,2.80e-01,-4.80e+00,
335,-1.60e-01,-1.20e+01,
336,-1.20e-01,-4.80e+00,
337,2.80e-01,-1.12e+01,
338,2.80e-01,-4.80e+00,
339,-1.60e-01,-1.12e+01,
340,-1.60e-01,-1.12e+01,
341,2.80e-01,-4.00e+00,
342,-1.20e-01,-1.12e+01,
343,2.80e-01,-4.00e+00,
344,2.40e-01,-1.12e+01,
345,-2.00e-01,-4.00e+00,
346,-1.60e-01,-1.12e+01,
347,2.80e-01,-4.00e+00,
348,-1.60e-01,-1.12e+01,
349,2.80e-01,-4.00e+00,
350,-2.00e-01,-1.04e+01,
351,2.40e-01,-4.00e+00,
352,-1.60e-01,-1.04e+01,
353,2.80e-01,-4.00e+00,
354,-1.20e-01,-1.04e+01,
355,2.40e-01,-3.20e+00,
356,2.40e-01,-3.20e+00,
357,-3.20e-01,-1.04e+01,
358,2.80e-01,-3.20e+00,
359,-1.20e-01,-1.04e+01,
360,-1.60e-01,-3.20e+00,
361,2.40e-01,-1.04e+01,
362,2.40e-01,-3.20e+00,
363,-2.00e-01,-1.04e+01,
364,-1.60e-01,-3.20e+00,
365,2.80e-01,-9.60e+00,
366,-2.00e-01,-3.20e+00,
367,3.20e-01,-9.60e+00,
368,-1.60e-01,-9.60e+00,
369,2.80e-01,-2.40e+00,
370,-2.00e-01,-9.60e+00,
371,2.40e-01,-2.40e+00,
372,-2.00e-01,-9.60e+00,
373,2.40e-01,-1.60e+00,
374,2.40e-01,-9.60e+00,
375,-2.00e-01,-2.40e+00,
376,-1.20e-01,-9.60e+00,
377,2.40e-01,-1.60e+00,
378,2.40e-01,-9.60e+00,
379,-2.00e-01,-2.40e+00,
380,2.40e-01,-9.60e+00,
381,-1.60e-01,-2.40e+00,
382,-1.60e-01,-8.80e+00,
383,2.40e-01,-8.00e-01,
384,-1.60e-01,-1.60e+00,
385,2.80e-01,-8.80e+00,
386,-2.00e-01,-8.00e-01,
387,2.80e-01,-8.80e+00,
388,2.80e-01,-8.80e+00,
389,-2.40e-01,-8.00e-01,
390,-1.60e-01,-8.80e+00,
391,2.40e-01,-8.00e-01,
392,-1.60e-01,-8.80e+00,
393,2.40e-01,-8.00e-01,
394,-2.00e-01,-8.80e+00,
395,2.40e-01,-8.00e-01,
396,2.00e-01,-8.80e+00,
397,-2.00e-01,-8.00e-01,
398,2.00e-01,-8.00e+00,
399,-2.00e-01,0.00e+00,
400,-2.00e-01,-8.00e+00,
401,2.40e-01,0.00e+00,
402,-1.60e-01,-8.00e+00,
403,2.40e-01,0.00e+00,
404,-1.60e-01,0.00e+00,
405,2.40e-01,-8.00e+00,
406,-2.00e-01,0.00e+00,
407,3.20e-01,-8.00e+00,
408,2.00e-01,0.00e+00,
409,-2.00e-01,-8.00e+00,
410,-1.60e-01,0.00e+00,
411,2.40e-01,-8.00e+00,
412,2.80e-01,8.00e-01,
413,-1.60e-01,-7.20e+00,
414,-2.00e-01,8.00e-01,
415,2.80e-01,-7.20e+00,
416,2.40e-01,-7.20e+00,
417,-1.60e-01,8.00e-01,
418,2.40e-01,-7.20e+00,
419,-1.60e-01,8.00e-01,
420,2.40e-01,-7.20e+00,
421,-2.00e-01,8.00e-01,
422,2.40e-01,8.00e-01,
423,-2.00e-01,-7.20e+00,
424,-1.20e-01,-7.20e+00,
425,2.80e-01,8.00e-01,
426,2.80e-01,-7.20e+00,
427,-4.80e-01,1.60e+00,
428,2.80e-01,-6.40e+00,
429,-1.60e-01,1.60e+00,
430,2.80e-01,1.60e+00,
431,-1.20e-01,-6.40e+00,
432,2.40e-01,-6.40e+00,
433,-3.60e-01,1.60e+00,
434,2.40e-01,1.60e+00,
435,-1.60e-01,-6.40e+00,
436,-1.60e-01,1.60e+00,
437,2.80e-01,-6.40e+00,
438,-1.60e-01,-6.40e+00,
439,2.40e-01,2.40e+00,
440,2.00e-01,-6.40e+00,
441,-2.00e-01,2.40e+00,
442,2.40e-01,2.40e+00,
443,-2.00e-01,-5.60e+00,
444,-1.60e-01,2.40e+00,
445,2.40e-01,-5.60e+00,
446,2.40e-01,-5.60e+00,
447,-2.40e-01,2.40e+00,
448,2.40e-01,-5.60e+00,
449,-1.60e-01,2.40e+00,
450,2.40e-01,-4.80e+00,
451,-1.60e-01,2.40e+00,
452,2.40e-01,2.40e+00,
453,-2.00e-01,-5.60e+00,
454,-1.60e-01,-4.80e+00,
455,2.40e-01,3.20e+00,
456,-2.00e-01,-4.00e+00,
457,2.40e-01,3.20e+00,
458,2.40e-01,3.20e+00,
459,-2.00e-01,-4.80e+00,
460,-1.60e-01,3.20e+00,
461,2.40e-01,-4.80e+00,
462,-2.00e-01,3.20e+00,
463,2.40e-01,-4.80e+00,
464,-1.60e-01,3.20e+00,
465,2.40e-01,-4.00e+00,
466,2.40e-01,3.20e+00,
467,-1.60e-01,-4.80e+00,
468,-2.00e-01,3.20e+00,
469,2.40e-01,-4.00e+00,
470,-1.60e-01,-3.20e+00,
471,2.80e-01,4.00e+00,
472,-1.60e-01,-3.20e+00,
473,2.40e-01,4.00e+00,
474,-2.40e-01,-3.20e+00,
475,2.40e-01,4.00e+00,
476,-1.60e-01,-3.20e+00,
477,2.40e-01,4.00e+00,
478,-2.00e-01,-3.20e+00,
479,2.40e-01,4.00e+00,
480,2.40e-01,-3.20e+00,
481,-1.60e-01,4.00e+00,
482,2.40e-01,4.00e+00,
483,-2.00e-01,-3.20e+00,
484,-1.20e-01,-2.40e+00,
485,2.80e-01,4.80e+00,
486,-1.60e-01,-2.40e+00,
487,2.80e-01,4.80e+00,
488,-2.00e-01,4.80e+00,
489,2.80e-01,-2.40e+00,
490,2.40e-01,4.80e+00,
491,-2.00e-01,-2.40e+00,
492,-1.20e-01,4.80e+00,
493,2.40e-01,-2.40e+00,
494,-1.60e-01,4.80e+00,
495,2.40e-01,-2.40e+00,
496,2.40e-01,-1.60e+00,
497,-2.00e-01,4.80e+00,
498,2.80e-01,-1.60e+00,
499,-1.20e-01,5.60e+00,
500,-1.20e-01,-1.60e+00,
501,2.80e-01,5.60e+00,
502,-1.60e-01,-1.60e+00,
503,3.60e-01,5.60e+00,
504,-1.20e-01,-1.60e+00,
505,2.80e-01,5.60e+00,
506,2.40e-01,-1.60e+00,
507,-2.00e-01,5.60e+00,
508,-1.20e-01,-1.60e+00,
509,2.80e-01,5.60e+00,
510,-1.20e-01,-8.00e-01,
511,2.40e-01,6.40e+00,
512,2.40e-01,-8.00e-01,
513,-8.00e-02,6.40e+00,
514,-1.60e-01,6.40e+00,
515,2.80e-01,-8.00e-01,
516,2.40e-01,6.40e+00,
517,-2.40e-01,-8.00e-01,
518,2.40e-01,6.40e+00,
519,-1.60e-01,-8.00e-01,
520,2.40e-01,6.40e+00,
521,-4.40e-01,0.00e+00,
522,2.80e-01,0.00e+00,
523,-1.20e-01,6.40e+00,
524,2.40e-01,0.00e+00,
525,-2.40e-01,6.40e+00,
526,2.40e-01,0.00e+00,
527,-1.20e-01,8.00e+00,
528,-1.60e-01,0.00e+00,
529,2.40e-01,7.20e+00,
530,-2.00e-01,0.00e+00,
531,2.40e-01,7.20e+00,
532,2.40e-01,0.00e+00,
533,-1.60e-01,7.20e+00,
534,-1.60e-01,8.00e-01,
535,2.80e-01,7.20e+00,
536,3.60e-01,7.20e+00,
537,-2.00e-01,8.00e-01,
538,2.40e-01,7.20e+00,
539,-3.20e-01,8.00e-01,
540,2.40e-01,8.80e+00,
541,-2.00e-01,8.00e-01,
542,2.40e-01,8.80e+00,
543,-1.20e-01,8.00e-01,
544,-2.00e-01,8.00e+00,
545,2.40e-01,8.00e-01,
546,-1.60e-01,8.00e-01,
547,2.40e-01,8.80e+00,
548,-2.00e-01,1.60e+00,
549,2.40e-01,8.00e+00,
550,-1.60e-01,1.60e+00,
551,2.80e-01,8.80e+00,
552,2.00e-01,1.60e+00,
553,-2.80e-01,8.80e+00,
554,-1.60e-01,1.60e+00,
555,2.40e-01,9.60e+00,
556,2.40e-01,1.60e+00,
557,-4.00e-01,9.60e+00,
558,2.40e-01,1.60e+00,
559,-1.20e-01,9.60e+00,
560,-2.00e-01,1.60e+00,
561,2.40e-01,9.60e+00,
562,-4.00e-01,2.40e+00,
563,2.00e-01,9.60e+00,
564,-1.60e-01,2.40e+00,
565,2.40e-01,9.60e+00,
566,-1.20e-01,9.60e+00,
567,2.40e-01,2.40e+00,
568,-1.60e-01,9.60e+00,
569,2.40e-01,2.40e+00,
570,-1.60e-01,9.60e+00,
571,2.40e-01,2.40e+00,
572,2.40e-01,2.40e+00,
573,-1.60e-01,1.04e+01,
574,2.40e-01,1.04e+01,
575,-1.60e-01,2.40e+00,
576,-1.20e-01,2.40e+00,
577,2.40e-01,1.04e+01,
578,-2.00e-01,3.20e+00,
579,2.40e-01,1.04e+01,
580,-2.00e-01,3.20e+00,
581,2.80e-01,1.04e+01,
582,2.40e-01,3.20e+00,
583,-2.00e-01,1.12e+01,
584,-1.20e-01,1.12e+01,
585,2.40e-01,3.20e+00,
586,-4.00e-01,1.12e+01,
587,2.40e-01,3.20e+00,
588,2.80e-01,3.20e+00,
589,-1.60e-01,1.12e+01,
590,2.40e-01,1.12e+01,
591,-1.20e-01,4.00e+00,
592,2.40e-01,1.12e+01,
593,-1.60e-01,4.00e+00,
594,-1.20e-01,1.12e+01,
595,3.20e-01,4.00e+00,
596,2.40e-01,1.12e+01,
597,-2.00e-01,4.00e+00,
598,-2.00e-01,4.00e+00,
599,2.80e-01,1.20e+01,
600,-1.20e-01,4.80e+00,
601,2.80e-01,1.20e+01,
602,2.40e-01,4.80e+00,
603,-1.60e-01,1.20e+01,
604,2.80e-01,1.20e+01,
605,-1.20e-01,4.80e+00,
606,2.80e-01,4.80e+00,
607,-1.60e-01,1.20e+01,
608,2.40e-01,4.80e+00,
609,-1.60e-01,1.20e+01,
610,-2.00e-01,4.80e+00,
611,2.40e-01,1.28e+01,
612,2.80e-01,1.28e+01,
613,-1.60e-01,4.80e+00,
614,-1.60e-01,1.28e+01,
615,2.40e-01,5.60e+00,
616,3.60e-01,1.28e+01,
617,-1.60e-01,5.60e+00,
618,-1.20e-01,1.28e+01,
619,2.80e-01,5.60e+00,
620,2.80e-01,1.28e+01,
621,-1.60e-01,5.60e+00,
622,-1.20e-01,1.28e+01,
623,2.40e-01,6.40e+00,
624,2.80e-01,6.40e+00,
625,-1.60e-01,1.36e+01,
626,-1.60e-01,1.36e+01,
627,2.80e-01,5.60e+00,
628,2.40e-01,1.36e+01,
629,-1.60e-01,5.60e+00,
630,-1.60e-01,6.40e+00,
631,2.80e-01,1.36e+01,
632,2.80e-01,7.20e+00,
633,-1.60e-01,1.36e+01,
634,2.40e-01,7.20e+00,
635,-2.00e-01,1.36e+01,
636,-2.00e-01,7.20e+00,
637,2.80e-01,1.36e+01,
638,2.40e-01,7.20e+00,
639,-1.60e-01,1.44e+01,
640,2.40e-01,1.44e+01,
641,-2.00e-01,7.20e+00,
642,2.80e-01,1.44e+01,
643,-2.40e-01,7.20e+00,
644,-2.00e-01,1.44e+01,
645,2.40e-01,7.20e+00,
646,2.40e-01,1.44e+01,
647,-1.60e-01,8.00e+00,
648,2.40e-01,1.44e+01,
649,-1.60e-01,8.00e+00,
650,2.40e-01,1.44e+01,
651,-1.60e-01,8.00e+00,
652,-1.60e-01,8.00e+00,
653,2.80e-01,1.52e+01,
654,-2.00e-01,8.00e+00,
655,2.40e-01,1.52e+01,
656,-1.60e-01,8.00e+00,
657,2.40e-01,1.52e+01,
658,-2.00e-01,8.00e+00,
659,2.40e-01,1.52e+01,
660,2.00e-01,8.00e+00,
661,-2.00e-01,1.52e+01,
662,-2.00e-01,8.80e+00,
663,2.80e-01,1.52e+01,
664,2.00e-01,1.52e+01,
665,-2.00e-01,8.80e+00,
666,2.40e-01,8.80e+00,
667,-2.00e-01,1.60e+01,
668,-1.60e-01,1.60e+01,
669,1.60e-01,8.80e+00,
670,-2.00e-01,1.60e+01,
671,2.40e-01,8.80e+00,
672,2.40e-01,1.60e+01,
673,-2.40e-01,8.80e+00,
674,2.00e-01,1.60e+01,
675,-2.00e-01,8.80e+00,
676,2.00e-01,9.60e+00,
677,-2.00e-01,1.60e+01,
678,-2.00e-01,9.60e+00,
679,2.40e-01,1.60e+01,
680,2.80e-01,9.60e+00,
681,-2.00e-01,1.68e+01,
682,2.80e-01,9.60e+00,
683,-1.20e-01,1.68e+01,
684,-2.40e-01,9.60e+00,
685,2.40e-01,1.76e+01,
686,-1.60e-01,9.60e+00,
687,2.40e-01,1.68e+01,
688,-1.60e-01,9.60e+00,
689,2.40e-01,1.76e+01,
690,-1.60e-01,1.04e+01,
691,2.40e-01,1.76e+01,
692,-1.60e-01,1.68e+01,
693,2.40e-01,1.04e+01,
694,2.40e-01,1.04e+01,
695,-1.60e-01,1.76e+01,
696,-1.60e-01,1.84e+01,
697,2.40e-01,1.04e+01,
698,2.40e-01,1.04e+01,
699,-1.60e-01,1.84e+01,
700,2.80e-01,1.04e+01,
701,-4.40e-01,1.84e+01,
702,-1.60e-01,1.04e+01,
703,2.80e-01,1.84e+01,
704,-2.80e-01,1.12e+01,
705,2.40e-01,1.84e+01,
706,-1.60e-01,1.12e+01,
707,2.80e-01,1.84e+01,
708,2.40e-01,1.12e+01,
709,-2.00e-01,1.84e+01,
710,-1.20e-01,1.12e+01,
711,2.40e-01,1.92e+01,
712,2.80e-01,1.12e+01,
713,-1.20e-01,1.92e+01,
714,2.40e-01,1.12e+01,
715,-1.60e-01,1.92e+01,
716,2.00e-01,1.12e+01,
717,-2.40e-01,1.92e+01,
718,-1.20e-01,1.20e+01,
719,2.80e-01,1.92e+01,
720,2.40e-01,1.20e+01,
721,-2.00e-01,1.92e+01,
722,-1.60e-01,1.92e+01,
723,2.40e-01,1.20e+01,
724,2.40e-01,1.20e+01,
725,-2.00e-01,2.00e+01,
726,-1.20e-01,1.20e+01,
727,2.40e-01,2.00e+01,
728,-1.60e-01,2.00e+01,
729,2.80e-01,1.20e+01,
730,2.40e-01,2.00e+01,
731,-1.20e-01,1.20e+01,
732,2.80e-01,1.28e+01,
733,-2.00e-01,2.00e+01,
734,-1.20e-01,1.28e+01,
735,2.80e-01,2.00e+01,
736,-1.60e-01,1.28e+01,
737,2.80e-01,2.00e+01,
738,-2.00e-01,1.28e+01,
739,2.40e-01,2.08e+01,
740,-1.60e-01,1.28e+01,
741,2.40e-01,2.08e+01,
742,-1.60e-01,1.28e+01,
743,3.20e-01,2.08e+01,
744,2.80e-01,2.08e+01,
745,-1.60e-01,1.28e+01,
746,-1.60e-01,2.08e+01,
747,4.00e-01,1.44e+01,
748,2.40e-01,2.08e+01,
749,-1.20e-01,1.36e+01,
750,2.00e-01,2.08e+01,
751,-1.20e-01,1.36e+01,
752,-1.60e-01,1.36e+01,
753,2.80e-01,2.16e+01,
754,-1.60e-01,2.16e+01,
755,2.40e-01,1.36e+01,
756,-1.60e-01,1.36e+01,
757,2.40e-01,2.16e+01,
758,2.80e-01,2.16e+01,
759,-1.60e-01,1.36e+01,
760,2.40e-01,2.16e+01,
761,-1.60e-01,1.44e+01,
762,2.40e-01,1.52e+01,
763,-2.00e-01,2.16e+01,
764,2.00e-01,2.16e+01,
765,-2.40e-01,1.44e+01,
766,2.00e-01,1.44e+01,
767,-1.60e-01,2.24e+01,
768,2.00e-01,2.24e+01,
769,-1.60e-01,1.44e+01,
770,-2.00e-01,2.24e+01,
771,2.80e-01,1.44e+01,
772,-2.00e-01,2.24e+01,
773,2.00e-01,1.52e+01,
774,-2.00e-01,2.24e+01,
775,2.40e-01,1.52e+01,
776,2.00e-01,2.24e+01,
777,-2.40e-01,1.52e+01,
778,-1.60e-01,2.24e+01,
779,2.40e-01,1.52e+01,
780,-1.60e-01,1.60e+01,
781,2.40e-01,2.32e+01,
782,2.40e-01,2.32e+01,
783,-2.00e-01,1.52e+01,
784,2.80e-01,1.60e+01,
785,-2.00e-01,2.32e+01,
786,-2.80e-01,1.60e+01,
787,2.40e-01,2.32e+01,
788,-1.60e-01,1.68e+01,
789,2.80e-01,2.32e+01,
790,2.40e-01,1.68e+01,
791,-1.60e-01,2.32e+01,
792,2.80e-01,1.68e+01,
793,-5.20e-01,2.32e+01,
794,2.40e-01,2.40e+01,
795,-2.00e-01,1.68e+01,
796,2.40e-01,1.68e+01,
797,-1.20e-01,2.40e+01,
798,-1.20e-01,2.40e+01,
799,2.40e-01,1.68e+01,
800,-1.60e-01,2.40e+01,
801,2.80e-01,1.68e+01,
802,-1.60e-01,1.68e+01,
803,2.80e-01,2.40e+01,
804,2.80e-01,2.40e+01,
805,-8.00e-02,1.76e+01,
806,2.40e-01,1.76e+01,
807,-1.60e-01,2.40e+01,
808,-1.60e-01,1.76e+01,
809,2.80e-01,2.48e+01,
810,-5.20e-01,1.76e+01,
811,2.80e-01,2.48e+01,
812,-1.60e-01,2.48e+01,
813,3.20e-01,-2.56e+01,
814,-1.20e-01,-1.76e+01,
815,2.80e-01,-2.48e+01,
816,2.40e-01,-1.76e+01,
817,-2.40e-01,-2.48e+01,
818,-1.60e-01,-2.48e+01,
819,2.80e-01,-1.68e+01,
820,-1.60e-01,-1.68e+01,
821,3.20e-01,-2.48e+01,
822,-2.00e-01,-1.68e+01,
823,4.40e-01,-2.48e+01,
824,2.00e-01,-1.68e+01,
825,-6.80e-01,-2.40e+01,
826,-3.20e-01,-1.68e+01,
827,-1.04e+00,-2.40e+01,
828,-9.20e-01,-1.68e+01,
829,-4.00e-01,-2.40e+01,
830,-7.20e-01,-1.68e+01,
831,-2.00e-01,-2.40e+01,
832,-5.60e-01,-2.32e+01,
833,-8.00e-02,-1.60e+01,
834,-4.00e-01,-2.32e+01,
835,0.00e+00,-1.60e+01,
836,-3.60e-01,-2.32e+01,
837,8.00e-02,-1.60e+01,
838,1.20e-01,-1.60e+01,
839,-2.80e-01,-2.40e+01,
840,-2.40e-01,-2.24e+01,
841,2.00e-01,-1.60e+01,
842,-2.00e-01,-2.24e+01,
843,2.40e-01,-1.60e+01,
844,3.20e-01,-2.24e+01,
845,-1.20e-01,-1.60e+01,
846,3.60e-01,-1.52e+01,
847,-1.60e-01,-2.24e+01,
848,3.20e-01,-1.52e+01,
849,-1.60e-01,-2.24e+01,
850,3.60e-01,-1.52e+01,
851,-8.00e-02,-2.24e+01,
852,0.00e+00,-1.52e+01,
853,3.60e-01,-2.24e+01,
854,-4.00e-02,-1.52e+01,
855,3.60e-01,-2.16e+01,
856,3.60e-01,-1.52e+01,
857,-4.00e-02,-2.16e+01,
858,-4.00e-02,-2.16e+01,
859,4.40e-01,-1.44e+01,
860,3.60e-01,-2.16e+01,
861,-4.00e-02,-1.44e+01,
862,3.60e-01,-2.16e+01,
863,-8.00e-02,-1.44e+01,
864,-4.00e-02,-2.16e+01,
865,3.60e-01,-1.44e+01,
866,3.20e-01,-2.16e+01,
867,-4.00e-02,-1.44e+01,
868,-1.20e-01,-2.08e+01,
869,4.00e-01,-1.44e+01,
870,0.00e+00,-2.08e+01,
871,4.00e-01,-1.44e+01,
872,3.60e-01,-1.44e+01,
873,-4.00e-01,-2.08e+01,
874,3.60e-01,-1.36e+01,
875,0.00e+00,-2.08e+01,
876,3.60e-01,-1.36e+01,
877,-4.00e-02,-2.08e+01,
878,0.00e+00,-1.36e+01,
879,3.60e-01,-2.08e+01,
880,3.60e-01,-1.36e+01,
881,-1.20e-01,-2.08e+01,
882,3.60e-01,-1.36e+01,
883,-8.00e-02,-2.00e+01,
884,-8.00e-02,-2.00e+01,
885,3.60e-01,-1.36e+01,
886,3.20e-01,-2.00e+01,
887,-2.00e-01,-1.36e+01,
888,-8.00e-02,-2.00e+01,
889,3.20e-01,-1.28e+01,
890,3.20e-01,-1.28e+01,
891,-1.20e-01,-2.00e+01,
892,-1.60e-01,-1.28e+01,
893,3.20e-01,-2.00e+01,
894,2.80e-01,-1.28e+01,
895,-1.20e-01,-2.00e+01,
896,2.80e-01,-1.92e+01,
897,-2.00e-01,-1.28e+01,
898,-1.60e-01,-1.28e+01,
899,2.80e-01,-1.92e+01,
900,2.40e-01,-1.28e+01,
901,-1.60e-01,-1.92e+01,
902,2.40e-01,-1.92e+01,
903,-1.20e-01,-1.20e+01,
904,2.40e-01,-1.20e+01,
905,-1.60e-01,-1.92e+01,
906,-1.60e-01,-1.20e+01,
907,2.80e-01,-1.92e+01,
908,2.80e-01,-1.92e+01,
909,-3.20e-01,-1.12e+01,
910,-1.60e-01,-1.84e+01,
911,2.80e-01,-1.12e+01,
912,-1.60e-01,-1.84e+01,
913,2.80e-01,-1.12e+01,
914,-1.60e-01,-1.84e+01,
915,2.40e-01,-1.20e+01,
916,-2.00e-01,-1.12e+01,
917,2.40e-01,-1.84e+01,
918,-1.60e-01,-1.84e+01,
919,2.80e-01,-1.04e+01,
920,2.40e-01,-1.84e+01,
921,-1.20e-01,-1.04e+01,
922,-2.00e-01,-1.84e+01,
923,2.40e-01,-1.04e+01,
924,-1.20e-01,-1.12e+01,
925,2.80e-01,-1.76e+01,
926,2.40e-01,-1.12e+01,
927,-2.00e-01,-1.76e+01,
928,-1.60e-01,-1.04e+01,
929,2.80e-01,-1.76e+01,
930,2.40e-01,-1.76e+01,
931,-2.00e-01,-9.60e+00,
932,2.80e-01,-1.76e+01,
933,-1.60e-01,-9.60e+00,
934,2.40e-01,-9.60e+00,
935,-2.00e-01,-1.76e+01,
936,-1.20e-01,-1.76e+01,
937,2.80e-01,-9.60e+00,
938,-1.20e-01,-1.68e+01,
939,2.80e-01,-9.60e+00,
940,2.40e-01,-1.68e+01,
941,-1.60e-01,-9.60e+00,
942,2.40e-01,-1.68e+01,
943,-2.00e-01,-8.80e+00,
944,2.40e-01,-8.80e+00,
945,-1.20e-01,-1.68e+01,
946,-1.60e-01,-1.68e+01,
947,2.40e-01,-8.80e+00,
948,2.40e-01,-8.80e+00,
949,-1.60e-01,-1.68e+01,
950,-1.60e-01,-1.68e+01,
951,2.80e-01,-8.80e+00,
952,2.80e-01,-8.80e+00,
953,-1.20e-01,-1.60e+01,
954,-1.60e-01,-8.80e+00,
955,2.80e-01,-1.52e+01,
956,2.80e-01,-8.80e+00,
957,-2.00e-01,-1.60e+01,
958,2.40e-01,-8.00e+00,
959,-2.00e-01,-1.60e+01,
960,-2.00e-01,-8.00e+00,
961,2.40e-01,-1.60e+01,
962,2.40e-01,-8.00e+00,
963,-2.00e-01,-1.60e+01,
964,2.40e-01,-1.52e+01,
965,-3.20e-01,-8.00e+00,
966,2.40e-01,-1.52e+01,
967,-2.00e-01,-8.00e+00,
968,-2.00e-01,-1.52e+01,
969,2.80e-01,-8.00e+00,
970,2.40e-01,-1.52e+01,
971,-1.60e-01,-8.00e+00,
972,2.80e-01,-7.20e+00,
973,-2.00e-01,-1.52e+01,
974,2.40e-01,-7.20e+00,
975,-1.60e-01,-1.52e+01,
976,2.40e-01,-7.20e+00,
977,-1.60e-01,-1.52e+01,
978,2.40e-01,-7.20e+00,
979,-2.00e-01,-1.44e+01,
980,-1.20e-01,-7.20e+00,
981,2.40e-01,-1.36e+01,
982,-2.00e-01,-7.20e+00,
983,2.40e-01,-1.36e+01,
984,2.40e-01,-1.44e+01,
985,-2.00e-01,-6.40e+00,
986,-2.00e-01,-6.40e+00,
987,2.40e-01,-1.44e+01,
988,-1.60e-01,-1.36e+01,
989,2.80e-01,-6.40e+00,
990,2.00e-01,-6.40e+00,
991,-1.60e-01,-1.44e+01,
992,2.40e-01,-1.36e+01,
993,-1.60e-01,-6.40e+00,
994,2.40e-01,-1.28e+01,
995,-2.00e-01,-6.40e+00,
996,-1.60e-01,-1.28e+01,
997,2.80e-01,-6.40e+00,
998,2.00e-01,-1.28e+01,
999,-1.60e-01,-5.60e+00,
1000,2.80e-01,-5.60e+00,
1001,-1.60e-01,-1.28e+01,
1002,-1.60e-01,-5.60e+00,
1003,2.40e-01,-1.28e+01,
1004,-1.60e-01,-5.60e+00,
1005,2.80e-01,-1.36e+01,
1006,-2.00e-01,-5.60e+00,
1007,2.80e-01,-1.28e+01,
1008,-1.20e-01,-5.60e+00,
1009,2.80e-01,-1.20e+01,
1010,-1.60e-01,-5.60e+00,
1011,2.40e-01,-1.20e+01,
1012,2.40e-01,-1.20e+01,
1013,-2.40e-01,-4.80e+00,
1014,2.40e-01,-1.20e+01,
1015,-1.60e-01,-4.80e+00,
1016,-2.00e-01,-1.20e+01,
1017,2.40e-01,-4.80e+00,
1018,2.40e-01,-1.20e+01,
1019,-2.00e-01,-4.80e+00,
1020,2.80e-01,-1.20e+01,
1021,-2.00e-01,-4.80e+00,
1022,2.40e-01,-1.12e+01,
1023,-1.60e-01,-4.80e+00,
1024,-2.00e-01,-1.12e+01,
1025,2.80e-01,-4.80e+00,
1026,2.80e-01,-4.00e+00,
1027,-2.00e-01,-1.12e+01,
1028,-1.20e-01,-1.12e+01,
1029,2.40e-01,-4.00e+00,
1030,-2.00e-01,-4.00e+00,
1031,2.80e-01,-1.12e+01,
1032,2.40e-01,-4.00e+00,
1033,-2.00e-01,-1.12e+01,
1034,2.40e-01,-4.00e+00,
1035,-3.20e-01,-1.12e+01,
1036,2.40e-01,-4.00e+00,
1037,-1.20e-01,-1.04e+01,
1038,-2.40e-01,-1.04e+01,
1039,2.00e-01,-4.00e+00,
1040,-1.60e-01,-1.04e+01,
1041,2.40e-01,-3.20e+00,
1042,-2.00e-01,-1.04e+01,
1043,2.40e-01,-3.20e+00,
1044,2.40e-01,-1.04e+01,
1045,-1.60e-01,-3.20e+00,
1046,-1.20e-01,-1.04e+01,
1047,2.00e-01,-3.20e+00,
1048,-2.00e-01,-1.04e+01,
1049,2.40e-01,-3.20e+00,
1050,2.40e-01,-9.60e+00,
1051,-2.00e-01,-3.20e+00,
1052,-1.60e-01,-3.20e+00,
1053,2.40e-01,-9.60e+00,
1054,-2.00e-01,-9.60e+00,
1055,2.40e-01,-2.40e+00,
1056,-2.00e-01,-2.40e+00,
1057,2.80e-01,-9.60e+00,
1058,-2.00e-01,-9.60e+00,
1059,2.40e-01,-1.60e+00,
1060,2.40e-01,-2.40e+00,
1061,-2.00e-01,-9.60e+00,
1062,2.40e-01,-2.40e+00,
1063,-2.00e-01,-9.60e+00,
1064,-1.60e-01,-9.60e+00,
1065,2.40e-01,-1.60e+00,
1066,2.40e-01,-9.60e+00,
1067,-1.60e-01,-1.60e+00,
1068,-1.60e-01,-1.60e+00,
1069,2.40e-01,-9.60e+00,
1070,2.40e-01,-8.80e+00,
1071,-2.00e-01,-1.60e+00,
1072,-1.60e-01,-1.60e+00,
1073,2.40e-01,-8.80e+00,
1074,-2.00e-01,-1.60e+00,
1075,2.80e-01,-8.80e+00,
1076,-2.00e-01,-8.80e+00,
1077,2.40e-01,-8.00e-01,
1078,2.00e-01,-8.80e+00,
1079,-3.60e-01,-8.00e-01,
1080,2.40e-01,-8.80e+00,
1081,-2.00e-01,-8.00e-01,
1082,2.80e-01,-8.80e+00,
1083,-2.00e-01,-8.00e-01,
1084,-1.20e-01,-8.00e+00,
1085,2.40e-01,0.00e+00,
1086,2.80e-01,-8.00e+00,
1087,-2.40e-01,0.00e+00,
1088,-1.20e-01,0.00e+00,
1089,2.80e-01,-8.00e+00,
1090,-1.20e-01,-8.00e+00,
1091,2.80e-01,0.00e+00,
1092,-1.20e-01,-8.00e+00,
1093,2.40e-01,0.00e+00,
1094,-1.60e-01,-8.00e+00,
1095,2.80e-01,0.00e+00,
1096,2.40e-01,-8.00e+00,
1097,-2.00e-01,0.00e+00,
1098,-1.60e-01,-7.20e+00,
1099,3.60e-01,8.00e-01,
1100,-1.20e-01,-7.20e+00,
1101,2.80e-01,8.00e-01,
1102,2.40e-01,-7.20e+00,
1103,-1.60e-01,8.00e-01,
1104,2.80e-01,-7.20e+00,
1105,-2.00e-01,8.00e-01,
1106,-1.60e-01,8.00e-01,
1107,2.80e-01,-7.20e+00,
1108,-1.60e-01,8.00e-01,
1109,2.40e-01,-7.20e+00,
1110,2.80e-01,-7.20e+00,
1111,-2.00e-01,8.00e-01,
1112,2.40e-01,1.60e+00,
1113,-1.60e-01,-7.20e+00,
1114,-1.60e-01,-6.40e+00,
1115,2.40e-01,1.60e+00,
1116,-1.60e-01,1.60e+00,
1117,2.80e-01,-6.40e+00,
1118,2.40e-01,1.60e+00,
1119,-1.60e-01,-6.40e+00,
1120,2.40e-01,1.60e+00,
1121,-1.60e-01,-6.40e+00,
1122,2.40e-01,-6.40e+00,
1123,-1.60e-01,1.60e+00,
1124,-1.60e-01,-6.40e+00,
1125,2.80e-01,2.40e+00,
1126,2.40e-01,-5.60e+00,
1127,-1.60e-01,2.40e+00,
1128,2.40e-01,2.40e+00,
1129,-3.60e-01,-5.60e+00,
1130,-1.60e-01,2.40e+00,
1131,2.40e-01,-5.60e+00,
1132,-2.00e-01,2.40e+00,
1133,2.40e-01,-5.60e+00,
1134,-2.00e-01,-5.60e+00,
1135,2.40e-01,2.40e+00,
1136,2.80e-01,2.40e+00,
1137,-2.00e-01,-5.60e+00,
1138,-2.00e-01,2.40e+00,
1139,2.40e-01,-5.60e+00,
1140,-1.20e-01,3.20e+00,
1141,2.40e-01,-4.80e+00,
1142,-2.40e-01,-4.80e+00,
1143,2.80e-01,3.20e+00,
1144,2.00e-01,3.20e+00,
1145,-4.00e-01,-4.80e+00,
1146,-1.60e-01,-4.80e+00,
1147,2.40e-01,3.20e+00,
1148,2.40e-01,3.20e+00,
1149,-1.60e-01,-4.80e+00,
1150,2.40e-01,3.20e+00,
1151,-2.00e-01,-4.80e+00,
1152,-2.00e-01,-4.00e+00,
1153,2.40e-01,3.20e+00,
1154,2.40e-01,3.20e+00,
1155,-2.00e-01,-4.80e+00,
1156,-1.60e-01,4.00e+00,
1157,2.40e-01,-4.00e+00,
1158,-1.20e-01,4.00e+00,
1159,2.80e-01,-3.20e+00,
1160,-2.00e-01,4.00e+00,
1161,2.80e-01,-4.00e+00,
1162,-1.60e-01,4.00e+00,
1163,2.80e-01,-3.20e+00,
1164,2.00e-01,4.00e+00,
1165,-1.60e-01,-3.20e+00,
1166,2.40e-01,4.00e+00,
1167,-1.60e-01,-3.20e+00,
1168,-1.20e-01,4.00e+00,
1169,2.80e-01,-3.20e+00,
1170,2.40e-01,-2.40e+00,
1171,-2.00e-01,4.80e+00,
1172,2.80e-01,4.80e+00,
1173,-1.60e-01,-2.40e+00,
1174,-1.60e-01,-2.40e+00,
1175,2.40e-01,4.80e+00,
1176,-2.00e-01,-2.40e+00,
1177,2.80e-01,4.80e+00,
1178,2.80e-01,-2.40e+00,
1179,-2.40e-01,4.80e+00,
1180,-2.00e-01,-2.40e+00,
1181,3.60e-01,4.80e+00,
1182,-2.00e-01,4.80e+00,
1183,2.80e-01,-1.60e+00,
1184,2.40e-01,-1.60e+00,
1185,-1.60e-01,5.60e+00,
1186,-1.60e-01,5.60e+00,
1187,2.00e-01,-1.60e+00,
1188,-1.60e-01,5.60e+00,
1189,2.40e-01,-1.60e+00,
1190,-1.60e-01,5.60e+00,
1191,2.40e-01,-1.60e+00,
1192,2.40e-01,5.60e+00,
1193,-1.20e-01,-1.60e+00,
1194,-1.60e-01,-8.00e-01,
1195,2.40e-01,5.60e+00,
1196,-1.60e-01,-8.00e-01,
1197,2.80e-01,6.40e+00,
1198,-2.00e-01,-8.00e-01,
1199,2.40e-01,6.40e+00,
